new Oblivious Chase;new Semi Oblivious Chase;new Parallel Restricted Chase;new Breadth First Restricted Chase;Local Core Chase;Vacuum Chase;Core Chase;Graal Oblivious Chase;Graal SemiOblivious Chase;Graal Parallel Restricted Chase;
0;0;0;0;0;0;0;0;0;0;
35;5;6;3;17;2;3;5;1;18;
37;6;14;4;120;18;84;46;10;19;
115;39;65;38;1656;84;2099;529149;673;574766;
2145;708;1262;1190;48238;2242;;;106218;;
88028;33811;59904;59927;;66671;;;;;
