new Oblivious Chase;new Semi Oblivious Chase;new Parallel Restricted Chase;new Breadth First Restricted Chase;Local Core Chase;Vacuum Chase;Core Chase;Graal Oblivious Chase;Graal SemiOblivious Chase;Graal Parallel Restricted Chase;
0;0;0;0;0;0;0;0;0;0;
42;4;5;5;39;2;8;1066;4;30;
160;18;42;19;128;19;39;35;22;13;
6674;6380;2059;1925;2608;145532;2398;21906;419258;13411;
