new Oblivious Chase;new Semi Oblivious Chase;new Parallel Restricted Chase;new Breadth First Restricted Chase;Local Core Chase;Vacuum Chase;Core Chase;Graal Oblivious Chase;Graal SemiOblivious Chase;Graal Parallel Restricted Chase;
0;0;0;0;0;0;0;0;0;0;
36;4;1;1;3;1;1;4;1;16;
4;1;2;0;5;1;0;1;1;1;
5;2;1;1;9;3;2;1;1;0;
8;4;1;0;4;1;1;1;1;2;
19;2;1;1;7;0;;1;3;1;
31;10;2;1;9;1;;4;5;2;
41;4;2;1;7;3;;63;10;3;
83;4;3;0;10;17;;5572;15;5;
154;6;4;1;14;7;;;17;6;
591;13;11;1;11;11;;;57;8;
2943;26;17;1;12;12;;;124;18;
16466;38;28;1;15;11;;;399;27;
88821;68;41;1;18;17;;;1201;41;
574371;196;58;2;22;26;;;4321;73;
;860;89;1;20;35;;;16028;144;
;876;183;2;23;64;;;66488;336;
;3382;319;2;25;109;;;288588;762;
;8764;898;2;28;215;;;1159852;1254;
;28819;1623;2;31;690;;;;3254;
;69010;3534;1;35;576;;;;7090;
;209948;7824;3;37;1151;;;;15620;
;553560;17176;2;44;5241;;;;34841;
;1691930;41837;2;50;6628;;;;75385;
;;88074;3;46;15883;;;;178131;
;;229151;2;37;32297;;;;392169;
;;522852;2;35;77117;;;;899537;
;;1275576;2;40;190877;;;;;
;;;2;42;465160;;;;;
;;;1;38;1176818;;;;;
;;;2;44;;;;;;
;;;2;41;;;;;;
;;;1;48;;;;;;
;;;2;43;;;;;;
;;;2;43;;;;;;
;;;2;42;;;;;;
;;;2;45;;;;;;
;;;2;48;;;;;;
;;;2;53;;;;;;
;;;2;52;;;;;;
;;;3;57;;;;;;
;;;2;63;;;;;;
;;;1;64;;;;;;
;;;2;79;;;;;;
;;;2;50;;;;;;
;;;3;50;;;;;;
;;;2;56;;;;;;
;;;2;49;;;;;;
;;;2;50;;;;;;
;;;4;49;;;;;;
;;;2;53;;;;;;
;;;2;146;;;;;;
;;;2;66;;;;;;
;;;2;63;;;;;;
;;;2;65;;;;;;
;;;4;81;;;;;;
;;;4;64;;;;;;
;;;3;53;;;;;;
;;;5;51;;;;;;
;;;2;52;;;;;;
;;;4;52;;;;;;
;;;3;54;;;;;;
;;;2;56;;;;;;
;;;4;71;;;;;;
;;;3;65;;;;;;
;;;4;61;;;;;;
;;;3;63;;;;;;
;;;3;128;;;;;;
;;;2;73;;;;;;
;;;4;68;;;;;;
;;;3;69;;;;;;
;;;3;84;;;;;;
;;;3;73;;;;;;
;;;4;75;;;;;;
;;;3;86;;;;;;
;;;3;78;;;;;;
;;;3;81;;;;;;
;;;4;83;;;;;;
;;;5;86;;;;;;
;;;4;159;;;;;;
;;;5;98;;;;;;
;;;5;97;;;;;;
;;;5;100;;;;;;
;;;3;107;;;;;;
;;;3;107;;;;;;
;;;3;101;;;;;;
;;;3;104;;;;;;
;;;5;107;;;;;;
;;;6;160;;;;;;
;;;3;111;;;;;;
;;;4;114;;;;;;
;;;4;128;;;;;;
;;;4;120;;;;;;
;;;4;124;;;;;;
;;;6;124;;;;;;
;;;6;165;;;;;;
;;;6;136;;;;;;
;;;6;131;;;;;;
;;;6;139;;;;;;
;;;7;138;;;;;;
;;;8;142;;;;;;
;;;5;148;;;;;;
;;;5;217;;;;;;
;;;5;151;;;;;;
;;;6;158;;;;;;
;;;5;160;;;;;;
;;;5;167;;;;;;
;;;9;204;;;;;;
;;;9;191;;;;;;
;;;8;191;;;;;;
;;;8;177;;;;;;
;;;5;173;;;;;;
;;;5;178;;;;;;
;;;8;249;;;;;;
;;;11;182;;;;;;
;;;5;188;;;;;;
;;;7;183;;;;;;
;;;9;243;;;;;;
;;;7;193;;;;;;
;;;9;208;;;;;;
;;;10;207;;;;;;
;;;8;200;;;;;;
;;;8;275;;;;;;
;;;10;211;;;;;;
;;;10;214;;;;;;
;;;7;227;;;;;;
;;;8;270;;;;;;
;;;7;224;;;;;;
;;;6;230;;;;;;
;;;7;236;;;;;;
;;;8;295;;;;;;
;;;5;238;;;;;;
;;;8;240;;;;;;
;;;9;251;;;;;;
;;;8;286;;;;;;
;;;8;257;;;;;;
;;;13;264;;;;;;
;;;9;291;;;;;;
;;;9;260;;;;;;
;;;9;267;;;;;;
;;;8;273;;;;;;
;;;6;314;;;;;;
;;;9;274;;;;;;
;;;8;275;;;;;;
;;;6;332;;;;;;
;;;9;296;;;;;;
;;;10;296;;;;;;
;;;12;344;;;;;;
;;;9;302;;;;;;
;;;13;312;;;;;;
;;;202;341;;;;;;
;;;8;304;;;;;;
;;;8;315;;;;;;
;;;10;377;;;;;;
;;;7;315;;;;;;
;;;14;326;;;;;;
;;;10;333;;;;;;
;;;9;390;;;;;;
;;;8;344;;;;;;
;;;9;337;;;;;;
;;;9;397;;;;;;
;;;8;351;;;;;;
;;;7;361;;;;;;
;;;8;395;;;;;;
;;;7;366;;;;;;
;;;12;416;;;;;;
;;;9;451;;;;;;
;;;9;374;;;;;;
;;;12;375;;;;;;
;;;12;390;;;;;;
;;;10;473;;;;;;
;;;9;391;;;;;;
;;;9;396;;;;;;
;;;14;454;;;;;;
;;;10;409;;;;;;
;;;9;409;;;;;;
;;;9;477;;;;;;
;;;9;454;;;;;;
;;;9;440;;;;;;
;;;14;437;;;;;;
;;;9;505;;;;;;
;;;10;438;;;;;;
;;;9;441;;;;;;
;;;9;496;;;;;;
;;;13;457;;;;;;
;;;9;468;;;;;;
;;;11;500;;;;;;
;;;14;553;;;;;;
;;;14;495;;;;;;
;;;10;483;;;;;;
;;;12;569;;;;;;
;;;9;499;;;;;;
;;;12;496;;;;;;
;;;9;578;;;;;;
;;;9;609;;;;;;
;;;13;511;;;;;;
;;;14;541;;;;;;
;;;12;520;;;;;;
;;;20;595;;;;;;
;;;12;525;;;;;;
;;;328;530;;;;;;
;;;12;587;;;;;;
;;;17;543;;;;;;
;;;15;547;;;;;;
;;;13;563;;;;;;
;;;12;637;;;;;;
;;;12;577;;;;;;
;;;11;574;;;;;;
;;;13;578;;;;;;
;;;12;657;;;;;;
;;;12;587;;;;;;
;;;12;609;;;;;;
;;;12;675;;;;;;
;;;12;601;;;;;;
;;;12;611;;;;;;
;;;13;615;;;;;;
;;;13;701;;;;;;
;;;14;633;;;;;;
;;;16;636;;;;;;
;;;13;758;;;;;;
;;;13;639;;;;;;
;;;12;646;;;;;;
;;;16;645;;;;;;
;;;17;775;;;;;;
;;;14;682;;;;;;
;;;14;669;;;;;;
;;;18;737;;;;;;
;;;25;679;;;;;;
;;;18;690;;;;;;
;;;18;787;;;;;;
;;;17;744;;;;;;
;;;16;730;;;;;;
;;;22;723;;;;;;
;;;15;840;;;;;;
;;;14;727;;;;;;
;;;20;733;;;;;;
;;;25;810;;;;;;
;;;17;759;;;;;;
;;;17;737;;;;;;
;;;16;824;;;;;;
;;;16;763;;;;;;
;;;15;778;;;;;;
;;;19;864;;;;;;
;;;15;828;;;;;;
;;;15;787;;;;;;
;;;16;858;;;;;;
;;;15;799;;;;;;
;;;15;808;;;;;;
;;;26;878;;;;;;
;;;20;809;;;;;;
;;;512;837;;;;;;
;;;15;899;;;;;;
;;;15;827;;;;;;
;;;15;837;;;;;;
;;;15;916;;;;;;
;;;15;871;;;;;;
;;;15;907;;;;;;
;;;22;944;;;;;;
;;;16;894;;;;;;
;;;16;884;;;;;;
;;;17;1010;;;;;;
;;;16;913;;;;;;
;;;17;902;;;;;;
;;;20;1011;;;;;;
;;;16;938;;;;;;
;;;16;1014;;;;;;
;;;16;934;;;;;;
;;;16;935;;;;;;
;;;16;1002;;;;;;
;;;16;970;;;;;;
;;;17;973;;;;;;
;;;16;1059;;;;;;
;;;17;985;;;;;;
;;;21;1056;;;;;;
;;;17;1024;;;;;;
;;;19;1028;;;;;;
;;;17;1134;;;;;;
;;;17;1023;;;;;;
;;;22;1088;;;;;;
;;;17;1037;;;;;;
;;;19;1050;;;;;;
;;;22;1142;;;;;;
;;;18;1086;;;;;;
;;;21;1191;;;;;;
;;;18;1083;;;;;;
;;;24;1118;;;;;;
;;;18;1173;;;;;;
;;;25;1100;;;;;;
;;;19;1155;;;;;;
;;;19;1119;;;;;;
;;;19;1181;;;;;;
;;;22;1141;;;;;;
;;;21;1164;;;;;;
;;;19;1249;;;;;;
;;;19;1160;;;;;;
;;;20;1224;;;;;;
;;;25;1174;;;;;;
;;;20;1243;;;;;;
;;;19;1231;;;;;;
;;;19;1265;;;;;;
;;;702;1264;;;;;;
;;;21;1270;;;;;;
;;;20;1225;;;;;;
;;;20;1244;;;;;;
;;;25;1337;;;;;;
;;;21;1235;;;;;;
;;;20;1327;;;;;;
;;;24;1284;;;;;;
;;;20;1361;;;;;;
;;;23;1289;;;;;;
;;;20;1349;;;;;;
;;;20;1286;;;;;;
;;;25;1379;;;;;;
;;;20;1328;;;;;;
;;;20;1383;;;;;;
;;;19;1328;;;;;;
;;;20;1409;;;;;;
;;;20;1415;;;;;;
;;;20;1450;;;;;;
;;;25;1394;;;;;;
;;;25;1431;;;;;;
;;;20;1386;;;;;;
;;;25;1471;;;;;;
;;;21;1407;;;;;;
;;;20;1468;;;;;;
;;;30;1478;;;;;;
;;;21;1458;;;;;;
;;;21;1504;;;;;;
;;;21;1473;;;;;;
;;;21;1535;;;;;;
;;;21;1504;;;;;;
;;;21;1550;;;;;;
;;;27;1492;;;;;;
;;;22;1560;;;;;;
;;;21;1559;;;;;;
;;;25;1536;;;;;;
;;;23;1612;;;;;;
;;;22;1584;;;;;;
;;;22;1625;;;;;;
;;;30;1569;;;;;;
;;;22;1727;;;;;;
;;;22;1606;;;;;;
;;;26;1604;;;;;;
;;;23;1744;;;;;;
;;;26;1630;;;;;;
;;;24;1732;;;;;;
;;;32;1660;;;;;;
;;;24;1682;;;;;;
;;;24;1718;;;;;;
;;;25;1702;;;;;;
;;;30;1765;;;;;;
;;;27;1739;;;;;;
;;;24;1714;;;;;;
;;;24;1765;;;;;;
;;;23;1754;;;;;;
;;;23;1698;;;;;;
;;;23;1791;;;;;;
;;;28;1817;;;;;;
;;;24;1816;;;;;;
;;;24;1927;;;;;;
;;;23;1791;;;;;;
;;;24;1781;;;;;;
;;;24;1849;;;;;;
;;;24;1827;;;;;;
;;;25;1797;;;;;;
;;;25;1948;;;;;;
;;;25;1840;;;;;;
;;;25;1924;;;;;;
;;;24;1912;;;;;;
;;;25;1875;;;;;;
;;;25;1848;;;;;;
;;;32;1973;;;;;;
;;;25;1918;;;;;;
;;;26;1878;;;;;;
;;;26;1890;;;;;;
;;;26;2009;;;;;;
;;;25;1938;;;;;;
;;;26;1933;;;;;;
;;;29;1992;;;;;;
;;;39;1985;;;;;;
;;;34;2012;;;;;;
;;;32;2021;;;;;;
;;;27;2052;;;;;;
;;;28;1992;;;;;;
;;;26;2076;;;;;;
;;;26;2021;;;;;;
;;;30;2156;;;;;;
;;;30;2089;;;;;;
;;;38;2110;;;;;;
;;;33;2125;;;;;;
;;;47;2163;;;;;;
;;;41;2168;;;;;;
;;;32;2164;;;;;;
;;;32;2206;;;;;;
;;;33;2233;;;;;;
;;;33;2229;;;;;;
;;;33;2164;;;;;;
;;;43;2207;;;;;;
;;;34;2179;;;;;;
;;;44;2271;;;;;;
;;;1187;2240;;;;;;
;;;34;2227;;;;;;
;;;35;2258;;;;;;
;;;34;2312;;;;;;
;;;38;2238;;;;;;
;;;35;2320;;;;;;
;;;35;2297;;;;;;
;;;35;2282;;;;;;
;;;35;2333;;;;;;
;;;42;2608;;;;;;
;;;40;2295;;;;;;
;;;36;2443;;;;;;
;;;36;2464;;;;;;
;;;36;2394;;;;;;
;;;46;2385;;;;;;
;;;41;2383;;;;;;
;;;36;2445;;;;;;
;;;47;2402;;;;;;
;;;44;2462;;;;;;
;;;36;2473;;;;;;
;;;38;2510;;;;;;
;;;39;2486;;;;;;
;;;39;2480;;;;;;
;;;42;2598;;;;;;
;;;38;2507;;;;;;
;;;41;2546;;;;;;
;;;39;2571;;;;;;
;;;45;2652;;;;;;
;;;39;2512;;;;;;
;;;47;2534;;;;;;
;;;39;2605;;;;;;
;;;39;2670;;;;;;
;;;39;2775;;;;;;
;;;41;2701;;;;;;
;;;39;2601;;;;;;
;;;47;2602;;;;;;
;;;41;2787;;;;;;
;;;40;2685;;;;;;
;;;40;2659;;;;;;
;;;40;2707;;;;;;
;;;46;2672;;;;;;
;;;40;2823;;;;;;
;;;40;2752;;;;;;
;;;40;2760;;;;;;
;;;40;2804;;;;;;
;;;43;2731;;;;;;
;;;42;2728;;;;;;
;;;41;2815;;;;;;
;;;48;2791;;;;;;
;;;51;2820;;;;;;
;;;42;2821;;;;;;
;;;46;2804;;;;;;
;;;42;2911;;;;;;
;;;42;2870;;;;;;
;;;41;2812;;;;;;
;;;44;2820;;;;;;
;;;47;2839;;;;;;
;;;45;2818;;;;;;
;;;40;2886;;;;;;
;;;40;2877;;;;;;
;;;40;2883;;;;;;
;;;41;2896;;;;;;
;;;44;3089;;;;;;
;;;48;3038;;;;;;
;;;48;3142;;;;;;
;;;41;3098;;;;;;
;;;52;3113;;;;;;
;;;42;3012;;;;;;
;;;41;3085;;;;;;
;;;41;3037;;;;;;
;;;42;3104;;;;;;
;;;42;3144;;;;;;
;;;42;3096;;;;;;
;;;42;3096;;;;;;
;;;42;3277;;;;;;
;;;925;3133;;;;;;
;;;43;3134;;;;;;
;;;49;3151;;;;;;
;;;43;3195;;;;;;
;;;43;3261;;;;;;
;;;44;3192;;;;;;
;;;43;3195;;;;;;
;;;44;3245;;;;;;
;;;44;3278;;;;;;
;;;45;3295;;;;;;
;;;51;3361;;;;;;
;;;45;3342;;;;;;
;;;52;3294;;;;;;
;;;44;3332;;;;;;
;;;44;3337;;;;;;
;;;45;3367;;;;;;
;;;55;3306;;;;;;
;;;56;3317;;;;;;
;;;47;3414;;;;;;
;;;52;3417;;;;;;
;;;53;3477;;;;;;
;;;48;3577;;;;;;
;;;46;3414;;;;;;
;;;47;3444;;;;;;
;;;47;3472;;;;;;
;;;61;3416;;;;;;
;;;47;3499;;;;;;
;;;47;3540;;;;;;
;;;51;3524;;;;;;
;;;53;3649;;;;;;
;;;51;3581;;;;;;
;;;62;3500;;;;;;
;;;48;3597;;;;;;
;;;56;3644;;;;;;
;;;56;3609;;;;;;
;;;50;3576;;;;;;
;;;49;3527;;;;;;
;;;54;3590;;;;;;
;;;56;3673;;;;;;
;;;49;3697;;;;;;
;;;49;3688;;;;;;
;;;49;3736;;;;;;
;;;55;3786;;;;;;
;;;50;3864;;;;;;
;;;50;3806;;;;;;
;;;49;3933;;;;;;
;;;50;3824;;;;;;
;;;56;3907;;;;;;
;;;52;3921;;;;;;
;;;56;4153;;;;;;
;;;55;3898;;;;;;
;;;57;4070;;;;;;
;;;50;3979;;;;;;
;;;55;4108;;;;;;
;;;52;3980;;;;;;
;;;61;4062;;;;;;
;;;57;4061;;;;;;
;;;55;4059;;;;;;
;;;51;4008;;;;;;
;;;52;4180;;;;;;
;;;59;4009;;;;;;
;;;56;4100;;;;;;
;;;57;4058;;;;;;
;;;61;4198;;;;;;
;;;53;4049;;;;;;
;;;54;4038;;;;;;
;;;53;4157;;;;;;
;;;52;4168;;;;;;
;;;52;4157;;;;;;
;;;53;4234;;;;;;
;;;60;4144;;;;;;
;;;64;4242;;;;;;
;;;57;4187;;;;;;
;;;59;4290;;;;;;
;;;56;4139;;;;;;
;;;56;4371;;;;;;
;;;54;4301;;;;;;
;;;56;4329;;;;;;
;;;62;4327;;;;;;
;;;68;4323;;;;;;
;;;56;4325;;;;;;
;;;57;4327;;;;;;
;;;57;4363;;;;;;
;;;62;4388;;;;;;
;;;63;4743;;;;;;
;;;60;4408;;;;;;
;;;58;4374;;;;;;
;;;61;4691;;;;;;
;;;60;4627;;;;;;
;;;58;4468;;;;;;
;;;55;4663;;;;;;
;;;54;4534;;;;;;
;;;864;4610;;;;;;
;;;56;4543;;;;;;
;;;61;4636;;;;;;
;;;60;4525;;;;;;
;;;55;4700;;;;;;
;;;61;4569;;;;;;
;;;54;4664;;;;;;
;;;56;4618;;;;;;
;;;58;4569;;;;;;
;;;56;4673;;;;;;
;;;61;4669;;;;;;
;;;54;4671;;;;;;
;;;61;4614;;;;;;
;;;55;4717;;;;;;
;;;55;4832;;;;;;
;;;55;4692;;;;;;
;;;65;4814;;;;;;
;;;55;4876;;;;;;
;;;61;4828;;;;;;
;;;55;4817;;;;;;
;;;1105;4855;;;;;;
;;;58;4944;;;;;;
;;;56;4969;;;;;;
;;;56;4883;;;;;;
;;;57;4845;;;;;;
;;;57;4967;;;;;;
;;;63;4966;;;;;;
;;;56;5006;;;;;;
;;;65;5260;;;;;;
;;;58;5089;;;;;;
;;;58;5008;;;;;;
;;;71;5053;;;;;;
;;;58;5071;;;;;;
;;;59;5034;;;;;;
;;;63;5197;;;;;;
;;;66;5137;;;;;;
;;;60;4980;;;;;;
;;;61;5066;;;;;;
;;;68;5042;;;;;;
;;;59;5077;;;;;;
;;;1138;5104;;;;;;
;;;61;5218;;;;;;
;;;60;5193;;;;;;
;;;60;5282;;;;;;
;;;60;5183;;;;;;
;;;60;5091;;;;;;
;;;61;5158;;;;;;
;;;60;5160;;;;;;
;;;62;5217;;;;;;
;;;71;5177;;;;;;
;;;70;5232;;;;;;
;;;78;5233;;;;;;
;;;71;5304;;;;;;
;;;62;5339;;;;;;
;;;61;5329;;;;;;
;;;66;5377;;;;;;
;;;63;5341;;;;;;
;;;67;5806;;;;;;
;;;63;5376;;;;;;
;;;67;5385;;;;;;
;;;1231;5360;;;;;;
;;;64;5403;;;;;;
;;;65;5376;;;;;;
;;;63;5462;;;;;;
;;;68;5413;;;;;;
;;;63;5399;;;;;;
;;;69;5466;;;;;;
;;;63;5540;;;;;;
;;;65;5587;;;;;;
;;;63;5672;;;;;;
;;;70;5724;;;;;;
;;;72;5742;;;;;;
;;;75;5651;;;;;;
;;;75;5683;;;;;;
;;;72;5653;;;;;;
;;;64;5718;;;;;;
;;;65;5984;;;;;;
;;;1079;6198;;;;;;
;;;68;5931;;;;;;
;;;65;5787;;;;;;
;;;70;5768;;;;;;
;;;65;6144;;;;;;
;;;66;5791;;;;;;
;;;66;5972;;;;;;
;;;74;5856;;;;;;
;;;67;5845;;;;;;
;;;68;5896;;;;;;
;;;67;6054;;;;;;
;;;68;5977;;;;;;
;;;68;6117;;;;;;
;;;69;5959;;;;;;
;;;76;5925;;;;;;
;;;69;6121;;;;;;
;;;77;6023;;;;;;
;;;90;5997;;;;;;
;;;76;6337;;;;;;
;;;70;6134;;;;;;
;;;70;6103;;;;;;
;;;70;6094;;;;;;
;;;70;6328;;;;;;
;;;78;6126;;;;;;
;;;71;6154;;;;;;
;;;81;6331;;;;;;
;;;71;6188;;;;;;
;;;72;6105;;;;;;
;;;85;6419;;;;;;
;;;79;6212;;;;;;
;;;73;6207;;;;;;
;;;72;6768;;;;;;
;;;72;6351;;;;;;
;;;1176;6422;;;;;;
;;;72;6666;;;;;;
;;;72;6456;;;;;;
;;;78;6261;;;;;;
;;;74;6644;;;;;;
;;;83;6531;;;;;;
;;;73;6863;;;;;;
;;;71;6638;;;;;;
;;;70;6604;;;;;;
;;;70;6745;;;;;;
;;;68;6614;;;;;;
;;;69;6886;;;;;;
;;;69;6616;;;;;;
;;;70;6862;;;;;;
;;;71;6583;;;;;;
;;;70;6766;;;;;;
;;;71;6751;;;;;;
;;;83;6736;;;;;;
;;;71;6631;;;;;;
;;;78;6708;;;;;;
;;;78;6721;;;;;;
;;;71;7072;;;;;;
;;;70;6711;;;;;;
;;;72;6875;;;;;;
;;;82;6963;;;;;;
;;;83;7103;;;;;;
;;;73;7170;;;;;;
;;;80;6918;;;;;;
;;;80;7022;;;;;;
;;;82;6971;;;;;;
;;;75;7134;;;;;;
;;;74;7288;;;;;;
;;;1220;7008;;;;;;
;;;77;7129;;;;;;
;;;77;7270;;;;;;
;;;74;7146;;;;;;
;;;74;7306;;;;;;
;;;80;7330;;;;;;
;;;79;7101;;;;;;
;;;76;7350;;;;;;
;;;76;7306;;;;;;
;;;78;7137;;;;;;
;;;87;7313;;;;;;
;;;76;7100;;;;;;
;;;86;7169;;;;;;
;;;77;7277;;;;;;
;;;85;7538;;;;;;
;;;1144;7481;;;;;;
;;;77;7514;;;;;;
;;;77;7463;;;;;;
;;;77;7407;;;;;;
;;;87;7459;;;;;;
;;;80;7536;;;;;;
;;;79;7477;;;;;;
;;;80;7586;;;;;;
;;;84;7704;;;;;;
;;;79;7543;;;;;;
;;;82;7603;;;;;;
;;;78;7719;;;;;;
;;;84;7976;;;;;;
;;;79;7871;;;;;;
;;;1198;7676;;;;;;
;;;81;7762;;;;;;
;;;80;7604;;;;;;
;;;81;8072;;;;;;
;;;81;8118;;;;;;
;;;83;7985;;;;;;
;;;81;7934;;;;;;
;;;82;7857;;;;;;
;;;80;7806;;;;;;
;;;87;7866;;;;;;
;;;82;7785;;;;;;
;;;101;7874;;;;;;
;;;89;8000;;;;;;
;;;81;7921;;;;;;
;;;1240;8058;;;;;;
;;;88;8115;;;;;;
;;;82;7972;;;;;;
;;;89;8077;;;;;;
;;;89;7925;;;;;;
;;;86;7982;;;;;;
;;;86;7950;;;;;;
;;;86;8165;;;;;;
;;;85;7965;;;;;;
;;;85;8330;;;;;;
;;;86;8180;;;;;;
;;;86;8021;;;;;;
;;;85;8235;;;;;;
;;;1164;8310;;;;;;
;;;89;8065;;;;;;
;;;92;8061;;;;;;
;;;88;8037;;;;;;
;;;89;9086;;;;;;
;;;88;8176;;;;;;
;;;102;8541;;;;;;
;;;116;8316;;;;;;
;;;116;8347;;;;;;
;;;116;8268;;;;;;
;;;119;8204;;;;;;
;;;115;8222;;;;;;
;;;1184;8352;;;;;;
;;;120;8357;;;;;;
;;;118;8341;;;;;;
;;;118;8411;;;;;;
;;;125;8413;;;;;;
;;;117;8427;;;;;;
;;;117;8586;;;;;;
;;;116;8536;;;;;;
;;;118;8553;;;;;;
;;;117;8660;;;;;;
;;;120;8889;;;;;;
;;;1177;8539;;;;;;
;;;124;8694;;;;;;
;;;120;8701;;;;;;
;;;123;8677;;;;;;
;;;126;8702;;;;;;
;;;134;8824;;;;;;
;;;119;8679;;;;;;
;;;121;8750;;;;;;
;;;119;8725;;;;;;
;;;128;8779;;;;;;
;;;132;8777;;;;;;
;;;133;9338;;;;;;
;;;127;9420;;;;;;
;;;122;9110;;;;;;
;;;133;9233;;;;;;
;;;130;9217;;;;;;
;;;119;9162;;;;;;
;;;128;9289;;;;;;
;;;131;9292;;;;;;
;;;119;9444;;;;;;
;;;120;9442;;;;;;
;;;126;9082;;;;;;
;;;121;9186;;;;;;
;;;1258;9301;;;;;;
;;;127;8975;;;;;;
;;;123;9075;;;;;;
;;;126;9546;;;;;;
;;;120;9165;;;;;;
;;;119;9299;;;;;;
;;;125;9581;;;;;;
;;;127;9534;;;;;;
;;;129;9666;;;;;;
;;;122;9332;;;;;;
;;;121;9663;;;;;;
;;;1264;9967;;;;;;
;;;133;9546;;;;;;
;;;124;10051;;;;;;
;;;123;9678;;;;;;
;;;130;9759;;;;;;
;;;134;9798;;;;;;
;;;132;9729;;;;;;
;;;124;9429;;;;;;
;;;129;9393;;;;;;
;;;128;9535;;;;;;
;;;124;9929;;;;;;
;;;1290;10111;;;;;;
;;;124;9767;;;;;;
;;;124;10131;;;;;;
;;;124;10281;;;;;;
;;;135;9652;;;;;;
;;;137;10268;;;;;;
;;;125;10119;;;;;;
;;;130;10068;;;;;;
;;;138;10153;;;;;;
;;;137;10244;;;;;;
;;;137;10020;;;;;;
;;;1324;10339;;;;;;
;;;127;10042;;;;;;
;;;135;9921;;;;;;
;;;129;10337;;;;;;
;;;143;10422;;;;;;
;;;133;10252;;;;;;
;;;128;10145;;;;;;
;;;131;10015;;;;;;
;;;138;10142;;;;;;
;;;136;10013;;;;;;
;;;135;10250;;;;;;
;;;1305;10914;;;;;;
;;;136;10704;;;;;;
;;;133;10301;;;;;;
;;;132;10574;;;;;;
;;;149;10731;;;;;;
;;;138;10385;;;;;;
;;;136;10758;;;;;;
;;;133;10338;;;;;;
;;;132;10608;;;;;;
;;;137;10503;;;;;;
;;;1294;10569;;;;;;
;;;136;10897;;;;;;
;;;133;10824;;;;;;
;;;134;10459;;;;;;
;;;134;10912;;;;;;
;;;137;10749;;;;;;
;;;136;10594;;;;;;
;;;144;10647;;;;;;
;;;143;10545;;;;;;
;;;140;10509;;;;;;
;;;1285;10612;;;;;;
;;;136;10567;;;;;;
;;;135;10996;;;;;;
;;;144;11542;;;;;;
;;;153;11299;;;;;;
;;;147;11159;;;;;;
;;;141;11247;;;;;;
;;;141;11227;;;;;;
;;;138;11367;;;;;;
;;;148;10929;;;;;;
;;;1316;11348;;;;;;
;;;147;11218;;;;;;
;;;148;11384;;;;;;
;;;145;11273;;;;;;
;;;154;11707;;;;;;
;;;141;11520;;;;;;
;;;148;11496;;;;;;
;;;150;11474;;;;;;
;;;142;11596;;;;;;
;;;139;11325;;;;;;
;;;1331;11073;;;;;;
;;;140;11743;;;;;;
;;;140;11208;;;;;;
;;;140;11207;;;;;;
;;;141;11289;;;;;;
;;;139;11562;;;;;;
;;;147;11642;;;;;;
;;;149;11572;;;;;;
;;;142;11293;;;;;;
;;;150;11677;;;;;;
;;;1357;11279;;;;;;
;;;145;11673;;;;;;
;;;147;11403;;;;;;
;;;145;11403;;;;;;
;;;158;11552;;;;;;
;;;146;11768;;;;;;
;;;145;11589;;;;;;
;;;144;12018;;;;;;
;;;146;11322;;;;;;
;;;146;11532;;;;;;
;;;1371;;;;;;;
;;;150;;;;;;;
;;;148;;;;;;;
;;;148;;;;;;;
;;;148;;;;;;;
;;;147;;;;;;;
;;;145;;;;;;;
;;;148;;;;;;;
;;;149;;;;;;;
;;;1331;;;;;;;
;;;150;;;;;;;
;;;148;;;;;;;
;;;161;;;;;;;
;;;150;;;;;;;
;;;153;;;;;;;
;;;149;;;;;;;
;;;148;;;;;;;
;;;149;;;;;;;
;;;149;;;;;;;
;;;162;;;;;;;
;;;150;;;;;;;
;;;151;;;;;;;
;;;154;;;;;;;
;;;150;;;;;;;
;;;151;;;;;;;
;;;151;;;;;;;
;;;155;;;;;;;
;;;151;;;;;;;
;;;1345;;;;;;;
;;;158;;;;;;;
;;;167;;;;;;;
;;;160;;;;;;;
;;;155;;;;;;;
;;;157;;;;;;;
;;;166;;;;;;;
;;;155;;;;;;;
;;;167;;;;;;;
;;;1358;;;;;;;
;;;163;;;;;;;
;;;154;;;;;;;
;;;156;;;;;;;
;;;157;;;;;;;
;;;170;;;;;;;
;;;198;;;;;;;
;;;189;;;;;;;
;;;166;;;;;;;
;;;1417;;;;;;;
;;;160;;;;;;;
;;;167;;;;;;;
;;;160;;;;;;;
;;;159;;;;;;;
;;;169;;;;;;;
;;;159;;;;;;;
;;;166;;;;;;;
;;;159;;;;;;;
;;;1415;;;;;;;
;;;160;;;;;;;
;;;160;;;;;;;
;;;159;;;;;;;
;;;160;;;;;;;
;;;160;;;;;;;
;;;161;;;;;;;
;;;161;;;;;;;
;;;161;;;;;;;
;;;1436;;;;;;;
;;;164;;;;;;;
;;;164;;;;;;;
;;;168;;;;;;;
;;;191;;;;;;;
;;;179;;;;;;;
;;;172;;;;;;;
;;;175;;;;;;;
;;;1384;;;;;;;
;;;168;;;;;;;
;;;164;;;;;;;
;;;165;;;;;;;
;;;163;;;;;;;
;;;210;;;;;;;
;;;164;;;;;;;
;;;169;;;;;;;
;;;166;;;;;;;
;;;1363;;;;;;;
;;;168;;;;;;;
;;;168;;;;;;;
;;;172;;;;;;;
;;;174;;;;;;;
;;;169;;;;;;;
;;;167;;;;;;;
;;;170;;;;;;;
;;;1464;;;;;;;
;;;172;;;;;;;
;;;164;;;;;;;
;;;176;;;;;;;
;;;173;;;;;;;
;;;164;;;;;;;
;;;173;;;;;;;
;;;165;;;;;;;
;;;165;;;;;;;
;;;1552;;;;;;;
;;;164;;;;;;;
;;;165;;;;;;;
;;;174;;;;;;;
;;;164;;;;;;;
;;;176;;;;;;;
;;;171;;;;;;;
;;;172;;;;;;;
;;;169;;;;;;;
;;;1576;;;;;;;
;;;172;;;;;;;
;;;169;;;;;;;
;;;184;;;;;;;
;;;180;;;;;;;
;;;176;;;;;;;
;;;179;;;;;;;
;;;179;;;;;;;
;;;170;;;;;;;
;;;1495;;;;;;;
;;;179;;;;;;;
;;;174;;;;;;;
;;;173;;;;;;;
;;;176;;;;;;;
;;;177;;;;;;;
;;;173;;;;;;;
;;;178;;;;;;;
;;;1473;;;;;;;
;;;172;;;;;;;
;;;180;;;;;;;
;;;179;;;;;;;
;;;172;;;;;;;
;;;178;;;;;;;
;;;176;;;;;;;
;;;176;;;;;;;
;;;1434;;;;;;;
;;;177;;;;;;;
;;;176;;;;;;;
;;;180;;;;;;;
;;;176;;;;;;;
;;;186;;;;;;;
;;;183;;;;;;;
;;;185;;;;;;;
;;;1432;;;;;;;
;;;187;;;;;;;
;;;188;;;;;;;
;;;189;;;;;;;
;;;186;;;;;;;
;;;180;;;;;;;
;;;181;;;;;;;
;;;1444;;;;;;;
;;;181;;;;;;;
;;;208;;;;;;;
;;;179;;;;;;;
;;;179;;;;;;;
;;;193;;;;;;;
;;;188;;;;;;;
;;;190;;;;;;;
;;;1447;;;;;;;
;;;182;;;;;;;
;;;189;;;;;;;
;;;190;;;;;;;
;;;184;;;;;;;
;;;182;;;;;;;
;;;183;;;;;;;
;;;193;;;;;;;
;;;1477;;;;;;;
;;;184;;;;;;;
;;;183;;;;;;;
;;;200;;;;;;;
;;;186;;;;;;;
;;;184;;;;;;;
;;;194;;;;;;;
;;;192;;;;;;;
;;;1501;;;;;;;
;;;188;;;;;;;
;;;195;;;;;;;
;;;192;;;;;;;
;;;186;;;;;;;
;;;189;;;;;;;
;;;191;;;;;;;
;;;1578;;;;;;;
;;;188;;;;;;;
;;;195;;;;;;;
;;;188;;;;;;;
;;;199;;;;;;;
;;;192;;;;;;;
;;;193;;;;;;;
;;;188;;;;;;;
;;;1533;;;;;;;
;;;197;;;;;;;
;;;189;;;;;;;
;;;189;;;;;;;
;;;190;;;;;;;
;;;202;;;;;;;
;;;193;;;;;;;
;;;191;;;;;;;
;;;1577;;;;;;;
;;;240;;;;;;;
;;;202;;;;;;;
;;;193;;;;;;;
;;;194;;;;;;;
;;;195;;;;;;;
;;;196;;;;;;;
;;;1588;;;;;;;
;;;197;;;;;;;
;;;198;;;;;;;
;;;204;;;;;;;
;;;201;;;;;;;
;;;207;;;;;;;
;;;200;;;;;;;
;;;199;;;;;;;
;;;1598;;;;;;;
;;;197;;;;;;;
;;;202;;;;;;;
;;;201;;;;;;;
;;;196;;;;;;;
;;;206;;;;;;;
;;;199;;;;;;;
;;;1507;;;;;;;
;;;201;;;;;;;
;;;203;;;;;;;
;;;200;;;;;;;
;;;201;;;;;;;
;;;198;;;;;;;
;;;200;;;;;;;
;;;1533;;;;;;;
;;;200;;;;;;;
;;;200;;;;;;;
;;;210;;;;;;;
;;;201;;;;;;;
;;;202;;;;;;;
;;;204;;;;;;;
;;;201;;;;;;;
;;;1522;;;;;;;
;;;210;;;;;;;
;;;204;;;;;;;
;;;202;;;;;;;
;;;204;;;;;;;
;;;214;;;;;;;
;;;218;;;;;;;
;;;1562;;;;;;;
;;;220;;;;;;;
;;;207;;;;;;;
;;;204;;;;;;;
;;;205;;;;;;;
;;;236;;;;;;;
;;;215;;;;;;;
;;;1526;;;;;;;
;;;219;;;;;;;
;;;219;;;;;;;
;;;244;;;;;;;
;;;233;;;;;;;
;;;207;;;;;;;
;;;1522;;;;;;;
;;;219;;;;;;;
;;;219;;;;;;;
;;;219;;;;;;;
;;;257;;;;;;;
;;;207;;;;;;;
;;;209;;;;;;;
;;;1519;;;;;;;
;;;213;;;;;;;
;;;213;;;;;;;
;;;216;;;;;;;
;;;219;;;;;;;
;;;213;;;;;;;
;;;223;;;;;;;
;;;1525;;;;;;;
;;;218;;;;;;;
;;;219;;;;;;;
;;;215;;;;;;;
;;;218;;;;;;;
;;;221;;;;;;;
;;;1604;;;;;;;
;;;220;;;;;;;
;;;215;;;;;;;
;;;213;;;;;;;
;;;216;;;;;;;
;;;224;;;;;;;
;;;217;;;;;;;
;;;1563;;;;;;;
;;;218;;;;;;;
;;;225;;;;;;;
;;;215;;;;;;;
;;;216;;;;;;;
;;;217;;;;;;;
;;;218;;;;;;;
;;;221;;;;;;;
;;;220;;;;;;;
;;;219;;;;;;;
;;;229;;;;;;;
;;;220;;;;;;;
;;;222;;;;;;;
;;;1489;;;;;;;
;;;230;;;;;;;
;;;226;;;;;;;
;;;238;;;;;;;
;;;223;;;;;;;
;;;225;;;;;;;
;;;1619;;;;;;;
;;;227;;;;;;;
;;;243;;;;;;;
;;;224;;;;;;;
;;;231;;;;;;;
;;;224;;;;;;;
;;;1562;;;;;;;
;;;233;;;;;;;
;;;223;;;;;;;
;;;225;;;;;;;
;;;238;;;;;;;
;;;230;;;;;;;
;;;229;;;;;;;
;;;1532;;;;;;;
;;;229;;;;;;;
;;;238;;;;;;;
;;;227;;;;;;;
;;;225;;;;;;;
;;;223;;;;;;;
;;;1578;;;;;;;
;;;222;;;;;;;
;;;220;;;;;;;
;;;235;;;;;;;
;;;223;;;;;;;
;;;221;;;;;;;
;;;221;;;;;;;
;;;1664;;;;;;;
;;;224;;;;;;;
;;;223;;;;;;;
;;;261;;;;;;;
;;;223;;;;;;;
;;;230;;;;;;;
;;;1666;;;;;;;
;;;225;;;;;;;
;;;222;;;;;;;
;;;230;;;;;;;
;;;224;;;;;;;
;;;234;;;;;;;
;;;235;;;;;;;
;;;1591;;;;;;;
;;;227;;;;;;;
;;;227;;;;;;;
;;;236;;;;;;;
;;;228;;;;;;;
;;;232;;;;;;;
;;;1599;;;;;;;
;;;228;;;;;;;
;;;278;;;;;;;
;;;227;;;;;;;
;;;229;;;;;;;
;;;238;;;;;;;
;;;1635;;;;;;;
;;;230;;;;;;;
;;;241;;;;;;;
;;;235;;;;;;;
;;;237;;;;;;;
;;;239;;;;;;;
;;;1648;;;;;;;
;;;234;;;;;;;
;;;237;;;;;;;
;;;237;;;;;;;
;;;250;;;;;;;
;;;235;;;;;;;
;;;249;;;;;;;
;;;1661;;;;;;;
;;;246;;;;;;;
;;;233;;;;;;;
;;;234;;;;;;;
;;;244;;;;;;;
;;;236;;;;;;;
;;;1671;;;;;;;
;;;244;;;;;;;
;;;241;;;;;;;
;;;246;;;;;;;
;;;246;;;;;;;
;;;246;;;;;;;
;;;1684;;;;;;;
;;;240;;;;;;;
;;;246;;;;;;;
;;;236;;;;;;;
;;;245;;;;;;;
;;;242;;;;;;;
;;;1670;;;;;;;
;;;262;;;;;;;
;;;244;;;;;;;
;;;251;;;;;;;
;;;246;;;;;;;
;;;243;;;;;;;
;;;1653;;;;;;;
;;;246;;;;;;;
;;;240;;;;;;;
;;;245;;;;;;;
;;;249;;;;;;;
;;;251;;;;;;;
;;;1634;;;;;;;
;;;248;;;;;;;
;;;243;;;;;;;
;;;261;;;;;;;
;;;245;;;;;;;
;;;255;;;;;;;
;;;1646;;;;;;;
;;;253;;;;;;;
;;;259;;;;;;;
;;;247;;;;;;;
;;;249;;;;;;;
;;;250;;;;;;;
;;;1726;;;;;;;
;;;253;;;;;;;
;;;262;;;;;;;
;;;257;;;;;;;
;;;262;;;;;;;
;;;254;;;;;;;
;;;1695;;;;;;;
;;;255;;;;;;;
;;;251;;;;;;;
;;;293;;;;;;;
;;;263;;;;;;;
;;;1713;;;;;;;
;;;253;;;;;;;
;;;252;;;;;;;
;;;252;;;;;;;
;;;297;;;;;;;
;;;252;;;;;;;
;;;1675;;;;;;;
;;;265;;;;;;;
;;;263;;;;;;;
;;;254;;;;;;;
;;;254;;;;;;;
;;;271;;;;;;;
;;;1679;;;;;;;
;;;254;;;;;;;
;;;256;;;;;;;
;;;255;;;;;;;
;;;256;;;;;;;
;;;1700;;;;;;;
;;;277;;;;;;;
;;;263;;;;;;;
;;;266;;;;;;;
;;;259;;;;;;;
;;;256;;;;;;;
;;;1662;;;;;;;
;;;296;;;;;;;
;;;258;;;;;;;
;;;266;;;;;;;
;;;273;;;;;;;
;;;1672;;;;;;;
;;;260;;;;;;;
;;;278;;;;;;;
;;;277;;;;;;;
;;;262;;;;;;;
;;;278;;;;;;;
;;;1681;;;;;;;
;;;266;;;;;;;
;;;265;;;;;;;
;;;262;;;;;;;
;;;262;;;;;;;
;;;1724;;;;;;;
;;;267;;;;;;;
;;;267;;;;;;;
;;;273;;;;;;;
;;;271;;;;;;;
;;;278;;;;;;;
;;;1647;;;;;;;
;;;277;;;;;;;
;;;266;;;;;;;
;;;265;;;;;;;
;;;266;;;;;;;
;;;1647;;;;;;;
;;;267;;;;;;;
;;;289;;;;;;;
;;;285;;;;;;;
;;;269;;;;;;;
;;;1678;;;;;;;
;;;272;;;;;;;
;;;277;;;;;;;
;;;270;;;;;;;
;;;280;;;;;;;
;;;1690;;;;;;;
;;;271;;;;;;;
;;;270;;;;;;;
;;;269;;;;;;;
;;;275;;;;;;;
;;;269;;;;;;;
;;;1691;;;;;;;
;;;272;;;;;;;
;;;273;;;;;;;
;;;275;;;;;;;
;;;287;;;;;;;
;;;1687;;;;;;;
;;;281;;;;;;;
;;;283;;;;;;;
;;;284;;;;;;;
;;;281;;;;;;;
;;;1714;;;;;;;
;;;276;;;;;;;
;;;286;;;;;;;
;;;277;;;;;;;
;;;280;;;;;;;
;;;1685;;;;;;;
;;;288;;;;;;;
;;;294;;;;;;;
;;;299;;;;;;;
;;;288;;;;;;;
;;;1669;;;;;;;
;;;280;;;;;;;
;;;280;;;;;;;
;;;282;;;;;;;
;;;278;;;;;;;
;;;1685;;;;;;;
;;;284;;;;;;;
;;;287;;;;;;;
;;;299;;;;;;;
;;;293;;;;;;;
;;;1732;;;;;;;
;;;285;;;;;;;
;;;292;;;;;;;
;;;289;;;;;;;
;;;286;;;;;;;
;;;1742;;;;;;;
;;;288;;;;;;;
;;;284;;;;;;;
;;;292;;;;;;;
;;;296;;;;;;;
;;;1703;;;;;;;
;;;294;;;;;;;
;;;313;;;;;;;
;;;296;;;;;;;
;;;297;;;;;;;
;;;1704;;;;;;;
;;;292;;;;;;;
;;;286;;;;;;;
;;;287;;;;;;;
;;;289;;;;;;;
;;;1713;;;;;;;
;;;292;;;;;;;
;;;298;;;;;;;
;;;289;;;;;;;
;;;295;;;;;;;
;;;1735;;;;;;;
;;;299;;;;;;;
;;;292;;;;;;;
;;;306;;;;;;;
;;;289;;;;;;;
;;;1742;;;;;;;
;;;292;;;;;;;
;;;287;;;;;;;
;;;285;;;;;;;
;;;284;;;;;;;
;;;1775;;;;;;;
;;;296;;;;;;;
;;;298;;;;;;;
;;;284;;;;;;;
;;;285;;;;;;;
;;;1775;;;;;;;
;;;294;;;;;;;
;;;292;;;;;;;
;;;321;;;;;;;
;;;295;;;;;;;
;;;1705;;;;;;;
;;;290;;;;;;;
;;;295;;;;;;;
;;;291;;;;;;;
;;;288;;;;;;;
;;;1776;;;;;;;
;;;300;;;;;;;
;;;289;;;;;;;
;;;289;;;;;;;
;;;289;;;;;;;
;;;1760;;;;;;;
;;;291;;;;;;;
;;;288;;;;;;;
;;;290;;;;;;;
;;;299;;;;;;;
;;;1747;;;;;;;
;;;299;;;;;;;
;;;293;;;;;;;
;;;291;;;;;;;
;;;1739;;;;;;;
;;;296;;;;;;;
;;;297;;;;;;;
;;;306;;;;;;;
;;;293;;;;;;;
;;;1726;;;;;;;
;;;295;;;;;;;
;;;299;;;;;;;
;;;297;;;;;;;
;;;295;;;;;;;
;;;1764;;;;;;;
;;;295;;;;;;;
;;;302;;;;;;;
;;;302;;;;;;;
;;;330;;;;;;;
;;;1764;;;;;;;
;;;297;;;;;;;
;;;306;;;;;;;
;;;310;;;;;;;
;;;1747;;;;;;;
;;;339;;;;;;;
;;;314;;;;;;;
;;;309;;;;;;;
;;;301;;;;;;;
;;;1720;;;;;;;
;;;301;;;;;;;
;;;308;;;;;;;
;;;312;;;;;;;
;;;1782;;;;;;;
;;;306;;;;;;;
;;;318;;;;;;;
;;;314;;;;;;;
;;;313;;;;;;;
;;;1784;;;;;;;
;;;319;;;;;;;
;;;308;;;;;;;
;;;340;;;;;;;
;;;306;;;;;;;
;;;1759;;;;;;;
;;;306;;;;;;;
;;;307;;;;;;;
;;;320;;;;;;;
;;;1792;;;;;;;
;;;308;;;;;;;
;;;319;;;;;;;
;;;308;;;;;;;
;;;325;;;;;;;
;;;1763;;;;;;;
;;;323;;;;;;;
;;;315;;;;;;;
;;;351;;;;;;;
;;;1880;;;;;;;
;;;398;;;;;;;
;;;407;;;;;;;
;;;1564;;;;;;;
;;;407;;;;;;;
;;;403;;;;;;;
;;;397;;;;;;;
;;;1564;;;;;;;
;;;407;;;;;;;
;;;400;;;;;;;
;;;1542;;;;;;;
;;;419;;;;;;;
;;;405;;;;;;;
;;;1573;;;;;;;
;;;410;;;;;;;
;;;416;;;;;;;
;;;1558;;;;;;;
;;;406;;;;;;;
;;;404;;;;;;;
;;;411;;;;;;;
;;;1524;;;;;;;
;;;412;;;;;;;
;;;417;;;;;;;
;;;1544;;;;;;;
;;;414;;;;;;;
;;;412;;;;;;;
;;;1590;;;;;;;
;;;417;;;;;;;
;;;407;;;;;;;
;;;1575;;;;;;;
;;;431;;;;;;;
;;;414;;;;;;;
;;;1555;;;;;;;
;;;424;;;;;;;
;;;411;;;;;;;
;;;1553;;;;;;;
;;;424;;;;;;;
;;;447;;;;;;;
;;;1588;;;;;;;
;;;425;;;;;;;
;;;414;;;;;;;
;;;1565;;;;;;;
;;;420;;;;;;;
;;;468;;;;;;;
;;;426;;;;;;;
;;;1560;;;;;;;
;;;424;;;;;;;
;;;421;;;;;;;
;;;1677;;;;;;;
;;;426;;;;;;;
;;;473;;;;;;;
;;;1619;;;;;;;
;;;425;;;;;;;
;;;423;;;;;;;
;;;1661;;;;;;;
;;;425;;;;;;;
;;;420;;;;;;;
;;;420;;;;;;;
;;;1642;;;;;;;
;;;419;;;;;;;
;;;420;;;;;;;
;;;1730;;;;;;;
;;;422;;;;;;;
;;;432;;;;;;;
;;;425;;;;;;;
;;;1717;;;;;;;
;;;444;;;;;;;
;;;441;;;;;;;
;;;1816;;;;;;;
;;;426;;;;;;;
;;;430;;;;;;;
;;;427;;;;;;;
;;;1735;;;;;;;
;;;428;;;;;;;
;;;429;;;;;;;
;;;1755;;;;;;;
;;;431;;;;;;;
;;;449;;;;;;;
;;;1746;;;;;;;
;;;448;;;;;;;
;;;446;;;;;;;
;;;444;;;;;;;
;;;1761;;;;;;;
;;;475;;;;;;;
;;;448;;;;;;;
;;;1729;;;;;;;
;;;438;;;;;;;
;;;438;;;;;;;
;;;460;;;;;;;
;;;1712;;;;;;;
;;;437;;;;;;;
;;;445;;;;;;;
;;;1767;;;;;;;
;;;447;;;;;;;
;;;439;;;;;;;
;;;1776;;;;;;;
;;;462;;;;;;;
;;;439;;;;;;;
;;;443;;;;;;;
;;;1781;;;;;;;
;;;438;;;;;;;
;;;440;;;;;;;
;;;1755;;;;;;;
;;;447;;;;;;;
;;;453;;;;;;;
;;;1755;;;;;;;
;;;441;;;;;;;
;;;439;;;;;;;
;;;440;;;;;;;
;;;1721;;;;;;;
;;;447;;;;;;;
;;;443;;;;;;;
;;;1740;;;;;;;
;;;532;;;;;;;
;;;448;;;;;;;
;;;1786;;;;;;;
;;;493;;;;;;;
;;;456;;;;;;;
;;;447;;;;;;;
;;;1720;;;;;;;
;;;448;;;;;;;
;;;448;;;;;;;
;;;1798;;;;;;;
;;;447;;;;;;;
;;;478;;;;;;;
;;;1773;;;;;;;
;;;457;;;;;;;
;;;460;;;;;;;
;;;458;;;;;;;
;;;1778;;;;;;;
;;;459;;;;;;;
;;;452;;;;;;;
;;;1789;;;;;;;
;;;455;;;;;;;
;;;468;;;;;;;
;;;1782;;;;;;;
;;;455;;;;;;;
;;;465;;;;;;;
;;;468;;;;;;;
;;;1795;;;;;;;
;;;472;;;;;;;
;;;457;;;;;;;
;;;1802;;;;;;;
;;;492;;;;;;;
;;;472;;;;;;;
;;;1833;;;;;;;
;;;494;;;;;;;
;;;471;;;;;;;
;;;463;;;;;;;
;;;1760;;;;;;;
;;;495;;;;;;;
;;;462;;;;;;;
;;;1773;;;;;;;
;;;465;;;;;;;
;;;463;;;;;;;
;;;1777;;;;;;;
;;;473;;;;;;;
;;;464;;;;;;;
;;;1816;;;;;;;
;;;479;;;;;;;
;;;470;;;;;;;
;;;468;;;;;;;
;;;1769;;;;;;;
;;;469;;;;;;;
;;;469;;;;;;;
;;;1800;;;;;;;
;;;484;;;;;;;
;;;480;;;;;;;
;;;1907;;;;;;;
;;;475;;;;;;;
;;;473;;;;;;;
;;;1824;;;;;;;
;;;475;;;;;;;
;;;474;;;;;;;
;;;475;;;;;;;
;;;1851;;;;;;;
;;;474;;;;;;;
;;;476;;;;;;;
;;;1827;;;;;;;
;;;481;;;;;;;
;;;486;;;;;;;
;;;1853;;;;;;;
;;;490;;;;;;;
;;;478;;;;;;;
;;;1916;;;;;;;
;;;494;;;;;;;
;;;497;;;;;;;
;;;1807;;;;;;;
;;;479;;;;;;;
;;;488;;;;;;;
;;;481;;;;;;;
;;;1830;;;;;;;
;;;482;;;;;;;
;;;484;;;;;;;
;;;1818;;;;;;;
;;;506;;;;;;;
;;;488;;;;;;;
;;;1823;;;;;;;
;;;485;;;;;;;
;;;486;;;;;;;
;;;1864;;;;;;;
;;;524;;;;;;;
;;;486;;;;;;;
;;;1840;;;;;;;
;;;489;;;;;;;
;;;497;;;;;;;
;;;1866;;;;;;;
;;;487;;;;;;;
;;;487;;;;;;;
;;;1880;;;;;;;
;;;492;;;;;;;
;;;490;;;;;;;
;;;1885;;;;;;;
;;;492;;;;;;;
;;;536;;;;;;;
;;;497;;;;;;;
;;;1856;;;;;;;
;;;499;;;;;;;
;;;509;;;;;;;
;;;1870;;;;;;;
;;;495;;;;;;;
;;;509;;;;;;;
;;;1883;;;;;;;
;;;501;;;;;;;
;;;499;;;;;;;
;;;1828;;;;;;;
;;;502;;;;;;;
;;;507;;;;;;;
;;;1831;;;;;;;
;;;514;;;;;;;
;;;500;;;;;;;
;;;1841;;;;;;;
;;;498;;;;;;;
;;;501;;;;;;;
;;;1861;;;;;;;
;;;516;;;;;;;
;;;512;;;;;;;
;;;1904;;;;;;;
;;;526;;;;;;;
;;;518;;;;;;;
;;;1881;;;;;;;
;;;541;;;;;;;
;;;518;;;;;;;
;;;1950;;;;;;;
;;;510;;;;;;;
;;;524;;;;;;;
;;;1922;;;;;;;
;;;529;;;;;;;
;;;548;;;;;;;
;;;1918;;;;;;;
;;;515;;;;;;;
;;;531;;;;;;;
;;;1906;;;;;;;
;;;521;;;;;;;
;;;524;;;;;;;
;;;1943;;;;;;;
;;;516;;;;;;;
;;;526;;;;;;;
;;;1917;;;;;;;
;;;526;;;;;;;
;;;522;;;;;;;
;;;1937;;;;;;;
;;;533;;;;;;;
;;;545;;;;;;;
;;;1898;;;;;;;
;;;523;;;;;;;
;;;526;;;;;;;
;;;1931;;;;;;;
;;;526;;;;;;;
;;;527;;;;;;;
;;;1946;;;;;;;
;;;534;;;;;;;
;;;529;;;;;;;
;;;1930;;;;;;;
;;;536;;;;;;;
;;;532;;;;;;;
;;;1950;;;;;;;
;;;528;;;;;;;
;;;539;;;;;;;
;;;1930;;;;;;;
;;;538;;;;;;;
;;;546;;;;;;;
;;;1932;;;;;;;
;;;536;;;;;;;
;;;536;;;;;;;
;;;1959;;;;;;;
;;;556;;;;;;;
;;;537;;;;;;;
;;;1934;;;;;;;
;;;544;;;;;;;
;;;547;;;;;;;
;;;1972;;;;;;;
;;;542;;;;;;;
;;;549;;;;;;;
;;;1949;;;;;;;
;;;539;;;;;;;
;;;533;;;;;;;
;;;2041;;;;;;;
;;;542;;;;;;;
;;;542;;;;;;;
;;;1974;;;;;;;
;;;537;;;;;;;
;;;1964;;;;;;;
;;;552;;;;;;;
;;;555;;;;;;;
;;;1946;;;;;;;
;;;552;;;;;;;
;;;544;;;;;;;
;;;1928;;;;;;;
;;;541;;;;;;;
;;;537;;;;;;;
;;;1971;;;;;;;
;;;545;;;;;;;
;;;545;;;;;;;
;;;1973;;;;;;;
;;;554;;;;;;;
;;;589;;;;;;;
;;;1956;;;;;;;
;;;547;;;;;;;
;;;567;;;;;;;
;;;1943;;;;;;;
;;;631;;;;;;;
;;;562;;;;;;;
;;;1977;;;;;;;
;;;561;;;;;;;
;;;2015;;;;;;;
;;;563;;;;;;;
;;;553;;;;;;;
;;;1943;;;;;;;
;;;562;;;;;;;
;;;551;;;;;;;
;;;1987;;;;;;;
;;;559;;;;;;;
;;;553;;;;;;;
;;;1938;;;;;;;
;;;556;;;;;;;
;;;1965;;;;;;;
;;;562;;;;;;;
;;;570;;;;;;;
;;;1975;;;;;;;
;;;566;;;;;;;
;;;560;;;;;;;
;;;1957;;;;;;;
;;;559;;;;;;;
;;;561;;;;;;;
;;;1967;;;;;;;
;;;564;;;;;;;
;;;561;;;;;;;
;;;1957;;;;;;;
;;;560;;;;;;;
;;;2007;;;;;;;
;;;574;;;;;;;
;;;579;;;;;;;
;;;1950;;;;;;;
;;;575;;;;;;;
;;;560;;;;;;;
;;;1995;;;;;;;
;;;557;;;;;;;
;;;556;;;;;;;
;;;2004;;;;;;;
;;;549;;;;;;;
;;;552;;;;;;;
;;;2002;;;;;;;
;;;560;;;;;;;
;;;1937;;;;;;;
;;;563;;;;;;;
;;;556;;;;;;;
;;;1931;;;;;;;
;;;580;;;;;;;
;;;561;;;;;;;
;;;1977;;;;;;;
;;;560;;;;;;;
;;;1965;;;;;;;
;;;554;;;;;;;
;;;562;;;;;;;
;;;1964;;;;;;;
;;;577;;;;;;;
;;;576;;;;;;;
;;;1972;;;;;;;
;;;567;;;;;;;
;;;1985;;;;;;;
;;;561;;;;;;;
;;;567;;;;;;;
;;;1997;;;;;;;
;;;567;;;;;;;
;;;572;;;;;;;
;;;1995;;;;;;;
;;;575;;;;;;;
;;;570;;;;;;;
;;;2113;;;;;;;
;;;577;;;;;;;
;;;2020;;;;;;;
;;;565;;;;;;;
;;;575;;;;;;;
;;;1988;;;;;;;
;;;572;;;;;;;
;;;579;;;;;;;
;;;2018;;;;;;;
;;;564;;;;;;;
;;;2004;;;;;;;
;;;565;;;;;;;
;;;568;;;;;;;
;;;1967;;;;;;;
;;;567;;;;;;;
;;;575;;;;;;;
;;;2012;;;;;;;
;;;577;;;;;;;
;;;1989;;;;;;;
;;;647;;;;;;;
;;;625;;;;;;;
;;;1999;;;;;;;
;;;580;;;;;;;
;;;580;;;;;;;
;;;2015;;;;;;;
;;;574;;;;;;;
;;;2011;;;;;;;
;;;575;;;;;;;
;;;582;;;;;;;
;;;2027;;;;;;;
;;;581;;;;;;;
;;;2028;;;;;;;
;;;593;;;;;;;
;;;593;;;;;;;
;;;2034;;;;;;;
;;;591;;;;;;;
;;;578;;;;;;;
;;;2094;;;;;;;
;;;615;;;;;;;
;;;2076;;;;;;;
;;;589;;;;;;;
;;;600;;;;;;;
;;;2024;;;;;;;
;;;586;;;;;;;
;;;581;;;;;;;
;;;1982;;;;;;;
;;;583;;;;;;;
;;;2033;;;;;;;
;;;586;;;;;;;
;;;603;;;;;;;
;;;2028;;;;;;;
;;;636;;;;;;;
;;;2010;;;;;;;
;;;589;;;;;;;
;;;585;;;;;;;
;;;1980;;;;;;;
;;;597;;;;;;;
;;;2037;;;;;;;
;;;597;;;;;;;
;;;610;;;;;;;
;;;2032;;;;;;;
;;;597;;;;;;;
;;;601;;;;;;;
;;;2016;;;;;;;
;;;600;;;;;;;
;;;2057;;;;;;;
;;;603;;;;;;;
;;;595;;;;;;;
;;;2073;;;;;;;
;;;593;;;;;;;
;;;2053;;;;;;;
;;;593;;;;;;;
;;;593;;;;;;;
;;;2064;;;;;;;
;;;614;;;;;;;
;;;2107;;;;;;;
;;;611;;;;;;;
;;;616;;;;;;;
;;;2038;;;;;;;
;;;656;;;;;;;
;;;2024;;;;;;;
;;;655;;;;;;;
;;;646;;;;;;;
;;;1979;;;;;;;
;;;621;;;;;;;
;;;2024;;;;;;;
;;;634;;;;;;;
;;;619;;;;;;;
;;;2104;;;;;;;
;;;623;;;;;;;
;;;2059;;;;;;;
;;;628;;;;;;;
;;;2033;;;;;;;
;;;622;;;;;;;
;;;623;;;;;;;
;;;2087;;;;;;;
;;;625;;;;;;;
;;;2080;;;;;;;
;;;632;;;;;;;
;;;637;;;;;;;
;;;2024;;;;;;;
;;;616;;;;;;;
;;;2047;;;;;;;
;;;625;;;;;;;
;;;621;;;;;;;
;;;2029;;;;;;;
;;;626;;;;;;;
;;;2112;;;;;;;
;;;633;;;;;;;
;;;2072;;;;;;;
;;;657;;;;;;;
;;;643;;;;;;;
;;;1999;;;;;;;
;;;634;;;;;;;
;;;2064;;;;;;;
;;;652;;;;;;;
;;;629;;;;;;;
;;;2035;;;;;;;
;;;646;;;;;;;
;;;2062;;;;;;;
;;;639;;;;;;;
;;;2073;;;;;;;
;;;638;;;;;;;
;;;629;;;;;;;
;;;2104;;;;;;;
;;;673;;;;;;;
;;;2095;;;;;;;
;;;636;;;;;;;
;;;664;;;;;;;
;;;2053;;;;;;;
;;;636;;;;;;;
;;;2112;;;;;;;
;;;634;;;;;;;
;;;2058;;;;;;;
;;;650;;;;;;;
;;;647;;;;;;;
;;;2048;;;;;;;
;;;647;;;;;;;
;;;2095;;;;;;;
;;;645;;;;;;;
;;;2066;;;;;;;
;;;641;;;;;;;
;;;654;;;;;;;
;;;2013;;;;;;;
;;;639;;;;;;;
;;;2101;;;;;;;
;;;647;;;;;;;
;;;2087;;;;;;;
;;;646;;;;;;;
;;;652;;;;;;;
;;;2018;;;;;;;
;;;644;;;;;;;
;;;2141;;;;;;;
;;;646;;;;;;;
;;;2095;;;;;;;
;;;655;;;;;;;
;;;649;;;;;;;
;;;2031;;;;;;;
;;;668;;;;;;;
;;;2086;;;;;;;
;;;655;;;;;;;
;;;2119;;;;;;;
;;;656;;;;;;;
;;;670;;;;;;;
;;;2064;;;;;;;
;;;666;;;;;;;
;;;8863;;;;;;;
;;;652;;;;;;;
;;;2058;;;;;;;
;;;660;;;;;;;
;;;2051;;;;;;;
;;;658;;;;;;;
;;;647;;;;;;;
;;;1993;;;;;;;
;;;676;;;;;;;
;;;2113;;;;;;;
;;;641;;;;;;;
;;;2080;;;;;;;
;;;645;;;;;;;
;;;658;;;;;;;
;;;2089;;;;;;;
;;;655;;;;;;;
;;;2155;;;;;;;
;;;665;;;;;;;
;;;2094;;;;;;;
;;;668;;;;;;;
;;;644;;;;;;;
;;;2095;;;;;;;
;;;647;;;;;;;
;;;2064;;;;;;;
;;;652;;;;;;;
;;;2097;;;;;;;
;;;655;;;;;;;
;;;2082;;;;;;;
;;;655;;;;;;;
;;;651;;;;;;;
;;;2096;;;;;;;
;;;644;;;;;;;
;;;2095;;;;;;;
;;;651;;;;;;;
;;;2119;;;;;;;
;;;656;;;;;;;
;;;652;;;;;;;
;;;2057;;;;;;;
;;;653;;;;;;;
;;;2111;;;;;;;
;;;649;;;;;;;
;;;2118;;;;;;;
;;;692;;;;;;;
;;;2117;;;;;;;
;;;661;;;;;;;
;;;670;;;;;;;
;;;2199;;;;;;;
;;;679;;;;;;;
;;;2105;;;;;;;
;;;650;;;;;;;
;;;2097;;;;;;;
;;;651;;;;;;;
;;;2084;;;;;;;
;;;660;;;;;;;
;;;653;;;;;;;
;;;2077;;;;;;;
;;;655;;;;;;;
;;;2113;;;;;;;
;;;659;;;;;;;
;;;2077;;;;;;;
;;;660;;;;;;;
;;;2087;;;;;;;
;;;666;;;;;;;
;;;704;;;;;;;
;;;2086;;;;;;;
;;;677;;;;;;;
;;;2106;;;;;;;
;;;676;;;;;;;
;;;2170;;;;;;;
;;;667;;;;;;;
;;;2119;;;;;;;
;;;669;;;;;;;
;;;2123;;;;;;;
;;;673;;;;;;;
;;;677;;;;;;;
;;;2124;;;;;;;
;;;671;;;;;;;
;;;2126;;;;;;;
;;;721;;;;;;;
;;;2127;;;;;;;
;;;683;;;;;;;
;;;2099;;;;;;;
;;;679;;;;;;;
;;;2091;;;;;;;
;;;701;;;;;;;
;;;685;;;;;;;
;;;2094;;;;;;;
;;;790;;;;;;;
;;;2108;;;;;;;
;;;685;;;;;;;
;;;2153;;;;;;;
;;;677;;;;;;;
;;;2120;;;;;;;
;;;682;;;;;;;
;;;2103;;;;;;;
;;;680;;;;;;;
;;;691;;;;;;;
;;;2197;;;;;;;
;;;721;;;;;;;
;;;2150;;;;;;;
;;;679;;;;;;;
;;;2193;;;;;;;
;;;689;;;;;;;
;;;2139;;;;;;;
;;;680;;;;;;;
;;;2142;;;;;;;
;;;681;;;;;;;
;;;2148;;;;;;;
;;;688;;;;;;;
;;;691;;;;;;;
;;;2264;;;;;;;
;;;696;;;;;;;
;;;2153;;;;;;;
;;;698;;;;;;;
;;;2204;;;;;;;
;;;703;;;;;;;
;;;2127;;;;;;;
;;;693;;;;;;;
;;;2127;;;;;;;
;;;690;;;;;;;
;;;2189;;;;;;;
;;;700;;;;;;;
;;;2160;;;;;;;
;;;706;;;;;;;
;;;2133;;;;;;;
;;;701;;;;;;;
;;;703;;;;;;;
;;;2147;;;;;;;
;;;698;;;;;;;
;;;2144;;;;;;;
;;;699;;;;;;;
;;;2149;;;;;;;
;;;706;;;;;;;
;;;2163;;;;;;;
;;;765;;;;;;;
;;;2166;;;;;;;
;;;700;;;;;;;
;;;2135;;;;;;;
;;;697;;;;;;;
;;;2178;;;;;;;
;;;711;;;;;;;
;;;2129;;;;;;;
;;;696;;;;;;;
;;;2124;;;;;;;
;;;695;;;;;;;
;;;719;;;;;;;
;;;2125;;;;;;;
;;;703;;;;;;;
;;;2175;;;;;;;
;;;709;;;;;;;
;;;2174;;;;;;;
;;;709;;;;;;;
;;;2268;;;;;;;
;;;711;;;;;;;
;;;2138;;;;;;;
;;;728;;;;;;;
;;;2171;;;;;;;
;;;709;;;;;;;
;;;2158;;;;;;;
;;;726;;;;;;;
;;;2166;;;;;;;
;;;701;;;;;;;
;;;2122;;;;;;;
;;;716;;;;;;;
;;;2135;;;;;;;
;;;722;;;;;;;
;;;2152;;;;;;;
;;;732;;;;;;;
;;;2159;;;;;;;
;;;727;;;;;;;
;;;2163;;;;;;;
;;;729;;;;;;;
;;;2182;;;;;;;
;;;731;;;;;;;
;;;2193;;;;;;;
;;;725;;;;;;;
;;;723;;;;;;;
;;;2171;;;;;;;
;;;735;;;;;;;
;;;2150;;;;;;;
;;;718;;;;;;;
;;;2175;;;;;;;
;;;716;;;;;;;
;;;2297;;;;;;;
;;;717;;;;;;;
;;;2184;;;;;;;
;;;729;;;;;;;
;;;2192;;;;;;;
;;;719;;;;;;;
;;;2226;;;;;;;
;;;723;;;;;;;
;;;2200;;;;;;;
;;;738;;;;;;;
;;;2172;;;;;;;
;;;742;;;;;;;
;;;2191;;;;;;;
;;;744;;;;;;;
;;;2184;;;;;;;
;;;747;;;;;;;
;;;2208;;;;;;;
;;;743;;;;;;;
;;;2182;;;;;;;
;;;797;;;;;;;
;;;2198;;;;;;;
;;;740;;;;;;;
;;;2207;;;;;;;
;;;756;;;;;;;
;;;2195;;;;;;;
;;;742;;;;;;;
;;;2219;;;;;;;
;;;739;;;;;;;
;;;2203;;;;;;;
;;;761;;;;;;;
;;;2254;;;;;;;
;;;760;;;;;;;
;;;2220;;;;;;;
;;;749;;;;;;;
;;;2217;;;;;;;
;;;739;;;;;;;
;;;2198;;;;;;;
;;;738;;;;;;;
;;;2170;;;;;;;
;;;761;;;;;;;
;;;2205;;;;;;;
;;;773;;;;;;;
;;;2211;;;;;;;
;;;759;;;;;;;
;;;2276;;;;;;;
;;;760;;;;;;;
;;;2214;;;;;;;
;;;757;;;;;;;
;;;2234;;;;;;;
;;;754;;;;;;;
;;;2209;;;;;;;
;;;761;;;;;;;
;;;2254;;;;;;;
;;;2236;;;;;;;
;;;790;;;;;;;
;;;2225;;;;;;;
;;;755;;;;;;;
;;;2183;;;;;;;
;;;762;;;;;;;
;;;2297;;;;;;;
;;;779;;;;;;;
;;;2188;;;;;;;
;;;754;;;;;;;
;;;2182;;;;;;;
;;;750;;;;;;;
;;;2192;;;;;;;
;;;759;;;;;;;
;;;2247;;;;;;;
;;;761;;;;;;;
;;;2219;;;;;;;
;;;764;;;;;;;
;;;2198;;;;;;;
;;;766;;;;;;;
;;;2240;;;;;;;
;;;784;;;;;;;
;;;2258;;;;;;;
;;;774;;;;;;;
;;;2213;;;;;;;
;;;2242;;;;;;;
;;;764;;;;;;;
;;;2210;;;;;;;
;;;815;;;;;;;
;;;2232;;;;;;;
;;;761;;;;;;;
;;;2214;;;;;;;
;;;776;;;;;;;
;;;2198;;;;;;;
;;;812;;;;;;;
;;;2220;;;;;;;
;;;797;;;;;;;
;;;2214;;;;;;;
;;;783;;;;;;;
;;;2221;;;;;;;
;;;774;;;;;;;
;;;2262;;;;;;;
;;;2241;;;;;;;
;;;786;;;;;;;
;;;2177;;;;;;;
;;;768;;;;;;;
;;;2234;;;;;;;
;;;781;;;;;;;
;;;2251;;;;;;;
;;;792;;;;;;;
;;;2229;;;;;;;
;;;780;;;;;;;
;;;2190;;;;;;;
;;;814;;;;;;;
;;;2209;;;;;;;
;;;2275;;;;;;;
;;;792;;;;;;;
;;;2221;;;;;;;
;;;790;;;;;;;
;;;2238;;;;;;;
;;;778;;;;;;;
;;;2188;;;;;;;
;;;778;;;;;;;
;;;2293;;;;;;;
;;;785;;;;;;;
;;;2228;;;;;;;
;;;2274;;;;;;;
;;;796;;;;;;;
;;;2241;;;;;;;
;;;807;;;;;;;
;;;2350;;;;;;;
;;;848;;;;;;;
;;;2282;;;;;;;
;;;832;;;;;;;
;;;2216;;;;;;;
;;;782;;;;;;;
;;;2226;;;;;;;
;;;2265;;;;;;;
;;;809;;;;;;;
;;;2268;;;;;;;
;;;790;;;;;;;
;;;2309;;;;;;;
;;;802;;;;;;;
;;;2221;;;;;;;
;;;807;;;;;;;
;;;2249;;;;;;;
;;;2287;;;;;;;
;;;806;;;;;;;
;;;2219;;;;;;;
;;;809;;;;;;;
;;;2292;;;;;;;
;;;808;;;;;;;
;;;2224;;;;;;;
;;;800;;;;;;;
;;;2235;;;;;;;
;;;2280;;;;;;;
;;;797;;;;;;;
;;;2277;;;;;;;
;;;811;;;;;;;
;;;2218;;;;;;;
;;;806;;;;;;;
;;;2227;;;;;;;
;;;808;;;;;;;
;;;2291;;;;;;;
;;;2310;;;;;;;
;;;808;;;;;;;
;;;2218;;;;;;;
;;;809;;;;;;;
;;;2248;;;;;;;
;;;804;;;;;;;
;;;2233;;;;;;;
;;;802;;;;;;;
;;;816;;;;;;;
;;;2269;;;;;;;
;;;812;;;;;;;
;;;2350;;;;;;;
;;;857;;;;;;;
;;;2241;;;;;;;
;;;807;;;;;;;
;;;2233;;;;;;;
;;;2392;;;;;;;
;;;822;;;;;;;
;;;2264;;;;;;;
;;;834;;;;;;;
;;;2239;;;;;;;
;;;853;;;;;;;
;;;2251;;;;;;;
;;;2280;;;;;;;
;;;827;;;;;;;
;;;2262;;;;;;;
;;;819;;;;;;;
;;;2255;;;;;;;
;;;826;;;;;;;
;;;2249;;;;;;;
;;;2293;;;;;;;
;;;826;;;;;;;
;;;2248;;;;;;;
;;;849;;;;;;;
;;;2231;;;;;;;
;;;833;;;;;;;
;;;2387;;;;;;;
;;;2230;;;;;;;
;;;838;;;;;;;
;;;2272;;;;;;;
;;;821;;;;;;;
;;;2240;;;;;;;
;;;2313;;;;;;;
;;;875;;;;;;;
;;;2244;;;;;;;
;;;828;;;;;;;
;;;2269;;;;;;;
;;;2325;;;;;;;
;;;847;;;;;;;
;;;2248;;;;;;;
;;;845;;;;;;;
;;;2266;;;;;;;
;;;829;;;;;;;
;;;2334;;;;;;;
;;;2296;;;;;;;
;;;836;;;;;;;
;;;2252;;;;;;;
;;;831;;;;;;;
;;;2279;;;;;;;
;;;2467;;;;;;;
;;;850;;;;;;;
;;;2297;;;;;;;
;;;847;;;;;;;
;;;2263;;;;;;;
;;;2322;;;;;;;
;;;850;;;;;;;
;;;2258;;;;;;;
;;;926;;;;;;;
;;;2263;;;;;;;
;;;834;;;;;;;
;;;2305;;;;;;;
;;;2309;;;;;;;
;;;842;;;;;;;
;;;2310;;;;;;;
;;;839;;;;;;;
;;;2369;;;;;;;
;;;2338;;;;;;;
;;;850;;;;;;;
;;;2253;;;;;;;
;;;836;;;;;;;
;;;2348;;;;;;;
;;;2342;;;;;;;
;;;855;;;;;;;
;;;2303;;;;;;;
;;;839;;;;;;;
;;;2317;;;;;;;
;;;2308;;;;;;;
;;;853;;;;;;;
;;;2285;;;;;;;
;;;842;;;;;;;
;;;2307;;;;;;;
;;;861;;;;;;;
;;;2321;;;;;;;
;;;2349;;;;;;;
;;;859;;;;;;;
;;;2309;;;;;;;
;;;862;;;;;;;
;;;2297;;;;;;;
;;;2343;;;;;;;
;;;859;;;;;;;
;;;2395;;;;;;;
;;;874;;;;;;;
;;;2327;;;;;;;
;;;2429;;;;;;;
;;;873;;;;;;;
;;;2311;;;;;;;
;;;857;;;;;;;
;;;2310;;;;;;;
;;;2379;;;;;;;
;;;869;;;;;;;
;;;2349;;;;;;;
;;;852;;;;;;;
;;;2315;;;;;;;
;;;2399;;;;;;;
;;;876;;;;;;;
;;;2310;;;;;;;
;;;878;;;;;;;
;;;889;;;;;;;
;;;2313;;;;;;;
;;;862;;;;;;;
;;;2298;;;;;;;
;;;2389;;;;;;;
;;;876;;;;;;;
;;;2325;;;;;;;
;;;877;;;;;;;
;;;2293;;;;;;;
;;;2354;;;;;;;
;;;866;;;;;;;
;;;2314;;;;;;;
;;;898;;;;;;;
;;;2394;;;;;;;
;;;2363;;;;;;;
;;;885;;;;;;;
;;;2347;;;;;;;
;;;888;;;;;;;
;;;2348;;;;;;;
;;;2351;;;;;;;
;;;888;;;;;;;
;;;2307;;;;;;;
;;;2348;;;;;;;
;;;958;;;;;;;
;;;2310;;;;;;;
;;;889;;;;;;;
;;;2316;;;;;;;
;;;2366;;;;;;;
;;;890;;;;;;;
;;;2338;;;;;;;
;;;2343;;;;;;;
;;;881;;;;;;;
;;;2320;;;;;;;
;;;930;;;;;;;
;;;2345;;;;;;;
;;;2376;;;;;;;
;;;965;;;;;;;
;;;2358;;;;;;;
;;;2357;;;;;;;
;;;951;;;;;;;
;;;2331;;;;;;;
;;;879;;;;;;;
;;;2493;;;;;;;
;;;2385;;;;;;;
;;;880;;;;;;;
;;;2285;;;;;;;
;;;2371;;;;;;;
;;;896;;;;;;;
;;;2328;;;;;;;
;;;902;;;;;;;
;;;2358;;;;;;;
;;;2367;;;;;;;
;;;894;;;;;;;
;;;2341;;;;;;;
;;;2422;;;;;;;
;;;956;;;;;;;
;;;2361;;;;;;;
;;;2365;;;;;;;
;;;905;;;;;;;
;;;2428;;;;;;;
;;;903;;;;;;;
;;;2332;;;;;;;
;;;2356;;;;;;;
;;;917;;;;;;;
;;;2322;;;;;;;
;;;2402;;;;;;;
;;;933;;;;;;;
;;;2398;;;;;;;
;;;2388;;;;;;;
;;;903;;;;;;;
;;;2391;;;;;;;
;;;918;;;;;;;
;;;2311;;;;;;;
;;;2391;;;;;;;
;;;908;;;;;;;
;;;2317;;;;;;;
;;;2360;;;;;;;
;;;926;;;;;;;
;;;2308;;;;;;;
;;;2372;;;;;;;
;;;907;;;;;;;
;;;2352;;;;;;;
;;;2400;;;;;;;
;;;917;;;;;;;
;;;2339;;;;;;;
;;;2363;;;;;;;
;;;921;;;;;;;
;;;2392;;;;;;;
;;;2387;;;;;;;
;;;920;;;;;;;
;;;2403;;;;;;;
;;;909;;;;;;;
;;;2356;;;;;;;
;;;2378;;;;;;;
;;;939;;;;;;;
;;;2380;;;;;;;
;;;2448;;;;;;;
;;;911;;;;;;;
;;;2409;;;;;;;
;;;2421;;;;;;;
;;;925;;;;;;;
;;;2369;;;;;;;
;;;2452;;;;;;;
;;;931;;;;;;;
;;;2479;;;;;;;
;;;2408;;;;;;;
;;;929;;;;;;;
;;;2325;;;;;;;
;;;2419;;;;;;;
;;;973;;;;;;;
;;;2376;;;;;;;
;;;2405;;;;;;;
;;;933;;;;;;;
;;;2336;;;;;;;
;;;2425;;;;;;;
;;;935;;;;;;;
;;;2308;;;;;;;
;;;2360;;;;;;;
;;;922;;;;;;;
;;;2319;;;;;;;
;;;2372;;;;;;;
;;;960;;;;;;;
;;;2375;;;;;;;
;;;2442;;;;;;;
;;;948;;;;;;;
;;;2370;;;;;;;
;;;2423;;;;;;;
;;;941;;;;;;;
;;;2375;;;;;;;
;;;2437;;;;;;;
;;;970;;;;;;;
;;;2378;;;;;;;
;;;2420;;;;;;;
;;;971;;;;;;;
;;;2342;;;;;;;
;;;2407;;;;;;;
;;;949;;;;;;;
;;;2410;;;;;;;
;;;2425;;;;;;;
;;;949;;;;;;;
;;;2383;;;;;;;
;;;2441;;;;;;;
;;;944;;;;;;;
;;;2341;;;;;;;
;;;2395;;;;;;;
;;;1007;;;;;;;
;;;2451;;;;;;;
;;;2424;;;;;;;
;;;948;;;;;;;
;;;2404;;;;;;;
;;;2499;;;;;;;
;;;2450;;;;;;;
;;;953;;;;;;;
;;;2392;;;;;;;
;;;2431;;;;;;;
;;;967;;;;;;;
;;;2346;;;;;;;
;;;2434;;;;;;;
;;;1049;;;;;;;
;;;2379;;;;;;;
;;;2422;;;;;;;
;;;974;;;;;;;
;;;2371;;;;;;;
;;;2419;;;;;;;
;;;978;;;;;;;
;;;2409;;;;;;;
;;;2425;;;;;;;
;;;2461;;;;;;;
;;;967;;;;;;;
;;;2413;;;;;;;
;;;2445;;;;;;;
;;;970;;;;;;;
;;;2350;;;;;;;
;;;2440;;;;;;;
;;;970;;;;;;;
;;;2417;;;;;;;
;;;2499;;;;;;;
;;;967;;;;;;;
;;;2433;;;;;;;
;;;2499;;;;;;;
;;;2461;;;;;;;
;;;980;;;;;;;
;;;2445;;;;;;;
;;;2487;;;;;;;
;;;1025;;;;;;;
;;;2492;;;;;;;
;;;2460;;;;;;;
;;;994;;;;;;;
;;;2390;;;;;;;
;;;2491;;;;;;;
;;;2446;;;;;;;
;;;983;;;;;;;
;;;2486;;;;;;;
;;;2497;;;;;;;
;;;997;;;;;;;
;;;2385;;;;;;;
;;;2427;;;;;;;
;;;979;;;;;;;
;;;2427;;;;;;;
;;;2430;;;;;;;
;;;2500;;;;;;;
;;;1007;;;;;;;
;;;2443;;;;;;;
;;;2476;;;;;;;
;;;971;;;;;;;
;;;2412;;;;;;;
;;;2475;;;;;;;
;;;986;;;;;;;
;;;2411;;;;;;;
;;;2497;;;;;;;
;;;2444;;;;;;;
;;;968;;;;;;;
;;;2460;;;;;;;
;;;5591;;;;;;;
;;;977;;;;;;;
;;;2422;;;;;;;
;;;2454;;;;;;;
;;;973;;;;;;;
;;;2462;;;;;;;
;;;2477;;;;;;;
;;;2466;;;;;;;
;;;987;;;;;;;
;;;2452;;;;;;;
;;;2501;;;;;;;
;;;1001;;;;;;;
;;;2434;;;;;;;
;;;2458;;;;;;;
;;;989;;;;;;;
;;;2456;;;;;;;
;;;2479;;;;;;;
;;;2420;;;;;;;
;;;973;;;;;;;
;;;2404;;;;;;;
;;;2432;;;;;;;
;;;973;;;;;;;
;;;2497;;;;;;;
;;;2447;;;;;;;
;;;987;;;;;;;
;;;2489;;;;;;;
;;;2585;;;;;;;
;;;2498;;;;;;;
;;;997;;;;;;;
;;;2479;;;;;;;
;;;2512;;;;;;;
;;;1002;;;;;;;
;;;2498;;;;;;;
;;;2500;;;;;;;
;;;2488;;;;;;;
;;;1007;;;;;;;
;;;2444;;;;;;;
;;;2476;;;;;;;
;;;1027;;;;;;;
;;;2462;;;;;;;
;;;2481;;;;;;;
;;;987;;;;;;;
;;;2472;;;;;;;
;;;2461;;;;;;;
;;;2492;;;;;;;
;;;1007;;;;;;;
;;;2495;;;;;;;
;;;2537;;;;;;;
;;;1010;;;;;;;
;;;2477;;;;;;;
;;;2559;;;;;;;
;;;2472;;;;;;;
;;;995;;;;;;;
;;;2661;;;;;;;
;;;2512;;;;;;;
;;;1001;;;;;;;
;;;1019;;;;;;;
;;;2510;;;;;;;
;;;2510;;;;;;;
;;;1018;;;;;;;
;;;2520;;;;;;;
;;;2511;;;;;;;
;;;2486;;;;;;;
;;;1020;;;;;;;
;;;2528;;;;;;;
;;;2527;;;;;;;
;;;1003;;;;;;;
;;;2449;;;;;;;
;;;2505;;;;;;;
;;;2513;;;;;;;
;;;1005;;;;;;;
;;;2498;;;;;;;
;;;2548;;;;;;;
;;;2499;;;;;;;
;;;1019;;;;;;;
;;;2471;;;;;;;
;;;2519;;;;;;;
;;;1014;;;;;;;
;;;2513;;;;;;;
;;;2548;;;;;;;
;;;2552;;;;;;;
;;;1024;;;;;;;
;;;2516;;;;;;;
;;;2499;;;;;;;
;;;2489;;;;;;;
;;;1038;;;;;;;
;;;2505;;;;;;;
;;;2486;;;;;;;
;;;1021;;;;;;;
;;;2514;;;;;;;
;;;2675;;;;;;;
;;;2573;;;;;;;
;;;1049;;;;;;;
;;;2500;;;;;;;
;;;2502;;;;;;;
;;;2544;;;;;;;
;;;1021;;;;;;;
;;;2501;;;;;;;
;;;2505;;;;;;;
;;;2525;;;;;;;
;;;1022;;;;;;;
;;;2495;;;;;;;
;;;2509;;;;;;;
;;;2565;;;;;;;
;;;1041;;;;;;;
;;;2509;;;;;;;
;;;2601;;;;;;;
;;;2707;;;;;;;
;;;1041;;;;;;;
;;;2522;;;;;;;
;;;2540;;;;;;;
;;;2519;;;;;;;
;;;1047;;;;;;;
;;;2589;;;;;;;
;;;2531;;;;;;;
;;;2538;;;;;;;
;;;1063;;;;;;;
;;;2528;;;;;;;
;;;2527;;;;;;;
;;;2542;;;;;;;
;;;1050;;;;;;;
;;;2540;;;;;;;
;;;2510;;;;;;;
;;;2543;;;;;;;
;;;1051;;;;;;;
;;;2579;;;;;;;
;;;2571;;;;;;;
;;;2537;;;;;;;
;;;1055;;;;;;;
;;;2508;;;;;;;
;;;2572;;;;;;;
;;;2537;;;;;;;
;;;1076;;;;;;;
;;;2555;;;;;;;
;;;2563;;;;;;;
;;;2520;;;;;;;
;;;1076;;;;;;;
;;;2476;;;;;;;
;;;2583;;;;;;;
;;;2557;;;;;;;
;;;1096;;;;;;;
;;;2509;;;;;;;
;;;2571;;;;;;;
;;;2542;;;;;;;
;;;1090;;;;;;;
;;;2526;;;;;;;
;;;2550;;;;;;;
;;;2593;;;;;;;
;;;1063;;;;;;;
;;;2566;;;;;;;
;;;2597;;;;;;;
;;;2614;;;;;;;
;;;2525;;;;;;;
;;;1058;;;;;;;
;;;2556;;;;;;;
;;;2573;;;;;;;
;;;2582;;;;;;;
;;;1103;;;;;;;
;;;2514;;;;;;;
;;;2558;;;;;;;
;;;2608;;;;;;;
;;;1078;;;;;;;
;;;2542;;;;;;;
;;;2596;;;;;;;
;;;2566;;;;;;;
;;;2560;;;;;;;
;;;1075;;;;;;;
;;;2585;;;;;;;
;;;2566;;;;;;;
;;;2612;;;;;;;
;;;1106;;;;;;;
;;;2549;;;;;;;
;;;2576;;;;;;;
;;;2583;;;;;;;
;;;2583;;;;;;;
;;;1096;;;;;;;
;;;2597;;;;;;;
;;;2578;;;;;;;
;;;2576;;;;;;;
;;;1100;;;;;;;
;;;2582;;;;;;;
;;;2707;;;;;;;
;;;2578;;;;;;;
;;;2637;;;;;;;
;;;1100;;;;;;;
;;;2533;;;;;;;
;;;2585;;;;;;;
;;;2683;;;;;;;
;;;1085;;;;;;;
;;;2563;;;;;;;
;;;2602;;;;;;;
;;;2596;;;;;;;
;;;2576;;;;;;;
;;;1138;;;;;;;
;;;2559;;;;;;;
;;;2628;;;;;;;
;;;2602;;;;;;;
;;;2565;;;;;;;
;;;1090;;;;;;;
;;;2540;;;;;;;
;;;2600;;;;;;;
;;;2669;;;;;;;
;;;2578;;;;;;;
;;;1109;;;;;;;
;;;2523;;;;;;;
;;;2589;;;;;;;
;;;2591;;;;;;;
;;;1104;;;;;;;
;;;2616;;;;;;;
;;;2655;;;;;;;
;;;2604;;;;;;;
;;;2627;;;;;;;
;;;1112;;;;;;;
;;;2585;;;;;;;
;;;2635;;;;;;;
;;;2613;;;;;;;
;;;2615;;;;;;;
;;;1115;;;;;;;
;;;2517;;;;;;;
;;;2651;;;;;;;
;;;2626;;;;;;;
;;;2630;;;;;;;
;;;1119;;;;;;;
;;;2598;;;;;;;
;;;2673;;;;;;;
;;;2674;;;;;;;
;;;2652;;;;;;;
;;;1139;;;;;;;
;;;2593;;;;;;;
;;;2610;;;;;;;
;;;2666;;;;;;;
;;;2693;;;;;;;
;;;1128;;;;;;;
;;;2611;;;;;;;
;;;2604;;;;;;;
;;;2701;;;;;;;
;;;2621;;;;;;;
;;;2621;;;;;;;
;;;1135;;;;;;;
;;;2571;;;;;;;
;;;2627;;;;;;;
;;;2642;;;;;;;
;;;2629;;;;;;;
;;;1119;;;;;;;
;;;2607;;;;;;;
;;;2631;;;;;;;
;;;2657;;;;;;;
;;;2613;;;;;;;
;;;1120;;;;;;;
;;;2592;;;;;;;
;;;2676;;;;;;;
;;;2583;;;;;;;
;;;2610;;;;;;;
;;;1168;;;;;;;
;;;2775;;;;;;;
;;;2672;;;;;;;
;;;2629;;;;;;;
;;;2606;;;;;;;
;;;1122;;;;;;;
;;;2771;;;;;;;
;;;2689;;;;;;;
;;;2745;;;;;;;
;;;2630;;;;;;;
;;;2652;;;;;;;
;;;1139;;;;;;;
;;;2594;;;;;;;
;;;2613;;;;;;;
;;;2748;;;;;;;
;;;2656;;;;;;;
;;;1138;;;;;;;
;;;2593;;;;;;;
;;;2638;;;;;;;
;;;2696;;;;;;;
;;;2646;;;;;;;
;;;1133;;;;;;;
;;;2640;;;;;;;
;;;2624;;;;;;;
;;;2649;;;;;;;
;;;2672;;;;;;;
;;;2679;;;;;;;
;;;1137;;;;;;;
;;;2625;;;;;;;
;;;2733;;;;;;;
;;;2633;;;;;;;
;;;2832;;;;;;;
;;;2631;;;;;;;
;;;1152;;;;;;;
;;;2626;;;;;;;
;;;2718;;;;;;;
;;;2651;;;;;;;
;;;2790;;;;;;;
;;;1172;;;;;;;
;;;2702;;;;;;;
;;;2656;;;;;;;
;;;2659;;;;;;;
;;;2702;;;;;;;
;;;2683;;;;;;;
;;;1144;;;;;;;
;;;2629;;;;;;;
;;;2684;;;;;;;
;;;2717;;;;;;;
;;;2671;;;;;;;
;;;2695;;;;;;;
;;;1159;;;;;;;
;;;2740;;;;;;;
;;;2658;;;;;;;
;;;2768;;;;;;;
;;;2656;;;;;;;
;;;2663;;;;;;;
;;;1177;;;;;;;
;;;2921;;;;;;;
;;;3070;;;;;;;
;;;2898;;;;;;;
;;;2873;;;;;;;
;;;2841;;;;;;;
;;;4269;;;;;;;
;;;2783;;;;;;;
;;;2800;;;;;;;
;;;2786;;;;;;;
;;;2784;;;;;;;
;;;2803;;;;;;;
;;;2790;;;;;;;
;;;2797;;;;;;;
;;;4044;;;;;;;
;;;2811;;;;;;;
;;;2872;;;;;;;
;;;2880;;;;;;;
;;;2875;;;;;;;
;;;2925;;;;;;;
;;;2898;;;;;;;
;;;2951;;;;;;;
;;;2948;;;;;;;
;;;3027;;;;;;;
;;;2931;;;;;;;
;;;2941;;;;;;;
;;;3037;;;;;;;
;;;2968;;;;;;;
;;;2910;;;;;;;
;;;2952;;;;;;;
;;;2951;;;;;;;
;;;2964;;;;;;;
;;;2948;;;;;;;
;;;2980;;;;;;;
;;;2950;;;;;;;
;;;2977;;;;;;;
;;;3008;;;;;;;
;;;4352;;;;;;;
;;;2938;;;;;;;
;;;2956;;;;;;;
;;;2996;;;;;;;
;;;2949;;;;;;;
;;;3013;;;;;;;
;;;3152;;;;;;;
;;;2980;;;;;;;
;;;2977;;;;;;;
;;;3071;;;;;;;
;;;2974;;;;;;;
;;;2971;;;;;;;
;;;3077;;;;;;;
;;;2990;;;;;;;
;;;3056;;;;;;;
;;;3046;;;;;;;
;;;3000;;;;;;;
;;;3031;;;;;;;
;;;2986;;;;;;;
;;;3139;;;;;;;
;;;3050;;;;;;;
;;;3069;;;;;;;
;;;3005;;;;;;;
;;;3084;;;;;;;
;;;3004;;;;;;;
;;;3051;;;;;;;
;;;3009;;;;;;;
;;;3012;;;;;;;
;;;3078;;;;;;;
;;;3033;;;;;;;
;;;3047;;;;;;;
;;;3020;;;;;;;
;;;3017;;;;;;;
;;;3017;;;;;;;
;;;3065;;;;;;;
;;;3035;;;;;;;
;;;3066;;;;;;;
;;;3122;;;;;;;
;;;3064;;;;;;;
;;;3040;;;;;;;
;;;3023;;;;;;;
;;;3039;;;;;;;
;;;2999;;;;;;;
;;;2988;;;;;;;
;;;3025;;;;;;;
;;;2996;;;;;;;
;;;3047;;;;;;;
;;;5994;;;;;;;
;;;4463;;;;;;;
;;;3042;;;;;;;
;;;3016;;;;;;;
;;;3020;;;;;;;
;;;2964;;;;;;;
;;;3033;;;;;;;
;;;3024;;;;;;;
;;;3150;;;;;;;
;;;3012;;;;;;;
;;;3023;;;;;;;
;;;3058;;;;;;;
;;;3062;;;;;;;
;;;3063;;;;;;;
;;;2990;;;;;;;
;;;3064;;;;;;;
;;;3089;;;;;;;
;;;3106;;;;;;;
;;;3054;;;;;;;
;;;3162;;;;;;;
;;;3105;;;;;;;
;;;3104;;;;;;;
;;;3186;;;;;;;
;;;3082;;;;;;;
;;;3085;;;;;;;
;;;3137;;;;;;;
;;;4573;;;;;;;
;;;3084;;;;;;;
;;;3144;;;;;;;
;;;3143;;;;;;;
;;;3095;;;;;;;
;;;3048;;;;;;;
;;;3056;;;;;;;
;;;3072;;;;;;;
;;;3057;;;;;;;
;;;3039;;;;;;;
;;;3100;;;;;;;
;;;3067;;;;;;;
;;;3145;;;;;;;
;;;3092;;;;;;;
;;;3053;;;;;;;
;;;3110;;;;;;;
;;;3153;;;;;;;
;;;3113;;;;;;;
;;;3028;;;;;;;
;;;3059;;;;;;;
;;;3066;;;;;;;
;;;3149;;;;;;;
;;;3108;;;;;;;
;;;3046;;;;;;;
;;;3127;;;;;;;
;;;3119;;;;;;;
;;;3138;;;;;;;
;;;3088;;;;;;;
;;;3104;;;;;;;
;;;3115;;;;;;;
;;;3121;;;;;;;
;;;4629;;;;;;;
;;;3103;;;;;;;
;;;3118;;;;;;;
;;;3099;;;;;;;
;;;3148;;;;;;;
;;;3105;;;;;;;
;;;3079;;;;;;;
;;;3045;;;;;;;
;;;3129;;;;;;;
;;;3168;;;;;;;
;;;3062;;;;;;;
;;;3065;;;;;;;
;;;3111;;;;;;;
;;;3141;;;;;;;
;;;4601;;;;;;;
;;;3067;;;;;;;
;;;3084;;;;;;;
;;;3090;;;;;;;
;;;3070;;;;;;;
;;;3099;;;;;;;
;;;3063;;;;;;;
;;;3068;;;;;;;
;;;3084;;;;;;;
;;;3084;;;;;;;
;;;4533;;;;;;;
;;;3109;;;;;;;
;;;3129;;;;;;;
;;;3188;;;;;;;
;;;3121;;;;;;;
;;;3153;;;;;;;
;;;3120;;;;;;;
;;;3102;;;;;;;
;;;3126;;;;;;;
;;;3151;;;;;;;
;;;3137;;;;;;;
;;;4544;;;;;;;
;;;3071;;;;;;;
;;;3081;;;;;;;
;;;3062;;;;;;;
;;;3113;;;;;;;
;;;3160;;;;;;;
;;;3094;;;;;;;
;;;3115;;;;;;;
;;;3155;;;;;;;
;;;3103;;;;;;;
;;;4584;;;;;;;
;;;3172;;;;;;;
;;;3113;;;;;;;
;;;3091;;;;;;;
;;;3146;;;;;;;
;;;3152;;;;;;;
;;;3174;;;;;;;
;;;3180;;;;;;;
;;;3255;;;;;;;
;;;3154;;;;;;;
;;;3154;;;;;;;
;;;4591;;;;;;;
;;;3074;;;;;;;
;;;3119;;;;;;;
;;;3130;;;;;;;
;;;3108;;;;;;;
;;;3080;;;;;;;
;;;3167;;;;;;;
;;;3266;;;;;;;
;;;4548;;;;;;;
;;;3079;;;;;;;
;;;3086;;;;;;;
;;;3085;;;;;;;
;;;3107;;;;;;;
;;;3108;;;;;;;
;;;3076;;;;;;;
;;;3082;;;;;;;
;;;3124;;;;;;;
;;;3079;;;;;;;
;;;4577;;;;;;;
;;;3051;;;;;;;
;;;3166;;;;;;;
;;;3109;;;;;;;
;;;3033;;;;;;;
;;;3077;;;;;;;
;;;3080;;;;;;;
;;;4469;;;;;;;
;;;3121;;;;;;;
;;;3073;;;;;;;
;;;3058;;;;;;;
;;;3262;;;;;;;
;;;3092;;;;;;;
;;;3453;;;;;;;
;;;4856;;;;;;;
;;;3047;;;;;;;
;;;3047;;;;;;;
;;;3081;;;;;;;
;;;3083;;;;;;;
;;;3082;;;;;;;
;;;3057;;;;;;;
;;;4477;;;;;;;
;;;3040;;;;;;;
;;;3070;;;;;;;
;;;3235;;;;;;;
;;;3091;;;;;;;
;;;3101;;;;;;;
;;;3249;;;;;;;
;;;3105;;;;;;;
;;;4513;;;;;;;
;;;3108;;;;;;;
;;;3109;;;;;;;
;;;3288;;;;;;;
;;;3104;;;;;;;
;;;3110;;;;;;;
;;;3244;;;;;;;
;;;4563;;;;;;;
;;;3122;;;;;;;
;;;3102;;;;;;;
;;;3202;;;;;;;
;;;3164;;;;;;;
;;;3077;;;;;;;
;;;3110;;;;;;;
;;;4460;;;;;;;
;;;3242;;;;;;;
;;;3144;;;;;;;
;;;3108;;;;;;;
;;;3245;;;;;;;
;;;3125;;;;;;;
;;;3123;;;;;;;
;;;4745;;;;;;;
;;;3197;;;;;;;
;;;3082;;;;;;;
;;;3108;;;;;;;
;;;3098;;;;;;;
;;;3105;;;;;;;
;;;4526;;;;;;;
;;;3106;;;;;;;
;;;3100;;;;;;;
;;;3190;;;;;;;
;;;3094;;;;;;;
;;;3215;;;;;;;
