Restricted Chase
Step;Time;Facts
1;31;3
2;3;6
3;4;10
4;6;14
5;7;22
6;12;33
7;13;48
8;17;71
9;20;105
10;31;154
11;34;226
12;41;332
13;52;487
14;80;714
15;188;1047
16;247;1535
17;529;2250
18;1003;3298
19;1876;4834
20;3753;7085
21;9790;10384
22;18026;15219
23;43331;22305
24;96965;32690
25;215113;47910
26;498140;70216
